<?xml version="1.0" encoding="UTF-8" standalone="no"?>
<!-- Created with Inkscape (http://www.inkscape.org/) -->

<svg
   xmlns:dc="http://purl.org/dc/elements/1.1/"
   xmlns:cc="http://creativecommons.org/ns#"
   xmlns:rdf="http://www.w3.org/1999/02/22-rdf-syntax-ns#"
   xmlns:svg="http://www.w3.org/2000/svg"
   xmlns="http://www.w3.org/2000/svg"
   xmlns:sodipodi="http://sodipodi.sourceforge.net/DTD/sodipodi-0.dtd"
   xmlns:inkscape="http://www.inkscape.org/namespaces/inkscape"
   id="svg2"
   version="1.1"
   inkscape:version="0.47 r22583"
   width="654.45599"
   height="623.36847"
   xml:space="preserve"
   sodipodi:docname="OUT.split.outlines-Model.svg"><metadata
     id="metadata8"><rdf:RDF><cc:Work
         rdf:about=""><dc:format>image/svg+xml</dc:format><dc:type
           rdf:resource="http://purl.org/dc/dcmitype/StillImage" /><dc:title></dc:title></cc:Work></rdf:RDF></metadata><defs
     id="defs6"><inkscape:perspective
       sodipodi:type="inkscape:persp3d"
       inkscape:vp_x="0 : 0.5 : 1"
       inkscape:vp_y="0 : 1000 : 0"
       inkscape:vp_z="1 : 0.5 : 1"
       inkscape:persp3d-origin="0.5 : 0.33333333 : 1"
       id="perspective10" /><clipPath
       clipPathUnits="userSpaceOnUse"
       id="clipPath18"><path
         d="m 16,50 2350.98,0 0,1513.8 -2350.98,0"
         id="path20" /></clipPath></defs><sodipodi:namedview
     pagecolor="#ffffff"
     bordercolor="#666666"
     borderopacity="1"
     objecttolerance="10"
     gridtolerance="10"
     guidetolerance="10"
     inkscape:pageopacity="0"
     inkscape:pageshadow="2"
     inkscape:window-width="1280"
     inkscape:window-height="1005"
     id="namedview4"
     showgrid="false"
     inkscape:zoom="0.89691211"
     inkscape:cx="287.37924"
     inkscape:cy="360.49517"
     inkscape:window-x="-4"
     inkscape:window-y="-4"
     inkscape:window-maximized="1"
     inkscape:current-layer="g12" /><g
     id="g12"
     inkscape:groupmode="layer"
     inkscape:label="OUT.split.outlines-Model"
     transform="matrix(1.25,0,0,-1.25,-40.912813,668.05414)"><path
       d="m 235.74051,288.2606 -1.70673,-0.0813 -1.70668,0 -1.70678,0 -1.70673,0.0813 -1.788,0.16257 -1.70673,0.16253 -1.70673,0.24381 -1.70678,0.24384 -1.70668,0.40635 -1.70673,0.3251 -1.62546,0.40635 -1.70673,0.48764 -1.62546,0.56892 -1.70673,0.56891 -1.62546,0.56889 -1.62545,0.65019 -1.54419,0.73145 -1.62545,0.73148 -1.54419,0.81272 -1.46291,0.81273 -1.54419,0.89399 -1.46291,0.89402 -1.46291,0.97526 -1.38164,0.97526 -1.46291,1.05656 -1.30036,1.05655 -1.38164,1.13782 -1.30037,1.13782 -1.21909,1.13782 -1.2191,1.2191 -1.21909,1.21909 -1.21909,1.21909 -1.05655,1.30037 -1.13786,1.30036 -1.05651,1.38164 -0.97532,1.3816 -0.97523,1.38168 -0.97527,1.38168 -0.894,1.46287 -0.81273,1.38164 -0.81273,1.46291 -0.81273,1.54419 -0.73145,1.46291 -0.65014,1.54423 -0.65023,1.54414 -0.65018,1.54418 -0.56891,1.54414 -0.48764,1.54423 -0.48764,1.54418 -0.40636,1.62546 -0.40636,1.54419 -0.3251,1.62545 -0.32509,1.54414 -0.32509,1.6255 -0.24382,1.62546 -0.16254,1.54414 -0.24382,1.6255 -0.0813,1.54419 -0.16259,1.6255 -0.0812,1.54414 -0.0813,1.62546 0,1.54418 0,1.62546 0,1.54418 0.0813,1.54414 0,1.54423 0.0812,1.62546 0.16259,1.54419 0.0813,1.46291 0.16254,1.54418 0.16255,1.54419 0.24382,1.54418 0.24382,1.46291 0.24377,1.54419 0.32514,1.46291 0.32509,1.46291 0.32509,1.54414 0.40636,1.463 0.40637,1.46287 0.40641,1.38164 0.40632,1.46291 0.48763,1.46291 0.48764,1.38164 0.48759,1.46291 0.48769,1.38159 0.48763,1.38169 0.56891,1.3816 0.48759,1.38168 0.56896,1.38168 0.56891,1.30028 0.56891,1.38168 0.56891,1.30037 0.56891,1.38159 0.65023,1.30037 0.56882,1.30041 0.65023,1.38164 0.56891,1.30036 0.65018,1.30037 0.56891,1.30037 0.65018,1.21909 0.65019,1.30036 0.65018,1.30037 0.56891,1.21914 0.65018,1.30027 0.65023,1.21914 0.65014,1.30037 0.65023,1.21909 0.65013,1.21909 0.65014,1.2191 0.73155,1.21905 0.65013,1.21913 0.65014,1.2191 0.65023,1.21909 0.65014,1.21909 0.65023,1.21905 0.73145,1.21914 0.65014,1.13782 0.65023,1.21909 0.65018,1.13782 0.73141,1.2191 0.65023,1.13782 0.65018,1.21913 0.73141,1.13778 0.65023,1.13782 0.65018,1.13782 0.73142,1.13782 0.65022,1.21909 0.65019,1.13782 0.73141,1.13782 0.65023,1.05655 0.65018,1.13782 0.73141,1.13782 0.65023,1.13782 0.65018,1.13782 0.73141,1.05655 0.65023,1.13782 0.65018,1.13782 0.73141,1.05655 0.65023,1.13782 0.65018,1.05654 0.73141,1.13782 0.65023,1.05655 0.65019,1.05655 0.73141,1.05654 0.65022,1.13787 0.65019,1.0565 0.73141,1.05655 0.65023,1.05655 0.65018,1.05653 0.65018,1.05655 0.73146,1.05655 0.65018,1.0565 0.65018,1.05659 0.73146,1.05655 0.65018,1.05654 0.65018,0.97528 0.65019,1.05655 0.73145,1.05654 0.65019,1.05655 0.65018,0.97527 0.65018,1.05655 0.65019,0.97528 0.73145,1.05654 0.65018,0.97528 0.65019,1.05655 0.65018,0.97527 0.65018,0.97527 0.73146,1.05655 0.65018,0.97528 0.65018,0.97527 0.65019,1.05655 0.65018,0.97527 0.65018,0.97528 0.65019,0.97523 0.65018,0.97532 0.65018,0.97527 0.73146,0.97527 0.65018,0.97528 0.65018,0.97527 0.65019,0.97528 8.69624,-0.81273 8.69611,-0.81273 -17.39235,-26.82005 -0.56891,-0.73145 -0.48764,-0.81273 -0.48764,-0.81268 -0.56891,-0.81278 -0.48763,-0.73144 -0.48764,-0.81273 -0.56896,-0.81273 -0.48759,-0.81273 -0.48764,-0.81268 -0.56891,-0.81277 -0.48768,-0.81273 -0.56882,-0.81273 -0.48768,-0.81273 -0.48764,-0.81268 -0.56891,-0.81278 -0.48759,-0.81273 -0.48768,-0.81272 -0.56891,-0.81273 -0.48764,-0.81269 -0.56891,-0.81277 -0.48764,-0.894 -0.48763,-0.81273 -0.56891,-0.81268 -0.48764,-0.81278 -0.56891,-0.894 -0.48764,-0.81273 -0.48764,-0.81273 -0.56891,-0.89404 -0.48763,-0.81269 -0.56891,-0.894 -0.48764,-0.81273 -0.48764,-0.894 -0.56895,-0.81273 -0.4876,-0.894 -0.56891,-0.81268 -0.48763,-0.89405 -0.56891,-0.81273 -0.48759,-0.894 -0.48769,-0.89405 -0.56891,-0.81268 -0.48763,-0.894 -0.56891,-0.89396 -0.48764,-0.89404 -0.48764,-0.89401 -0.56891,-0.81273 -0.48764,-0.89404 -0.56891,-0.89396 -0.48763,-0.894 -0.48764,-0.894 -0.56896,-0.894 -0.48759,-0.894 -0.48764,-0.89396 -0.56891,-0.97532 -0.48768,-0.894 -0.48759,-0.89405 -0.56891,-0.89396 -0.48764,-0.894 -0.48768,-0.97532 -0.56882,-0.89395 -0.48768,-0.894 -0.48764,-0.97528 -0.48768,-0.894 -0.56882,-0.97523 -0.48768,-0.89405 -0.48764,-0.97527 -0.48768,-0.89405 -0.48759,-0.97523 -0.48764,-0.97527 -0.56891,-0.97528 -0.48768,-0.894 -0.4876,-0.97532 -0.48763,-0.97523 -0.48764,-0.97527 -0.48764,-0.97527 -0.48764,-0.97523 -0.48763,-0.97532 -0.40641,-0.97528 -0.48759,-0.97527 -0.48764,-0.97528 -0.48764,-1.05654 -0.48764,-0.97528 -0.40636,-0.97527 -0.48764,-1.05655 -0.40636,-0.97527 -0.48764,-1.05655 -0.40636,-0.97528 -0.4876,-1.05654 -0.4064,-1.05655 -0.40637,-0.97528 -0.40636,-1.05655 -0.40637,-1.05654 -0.40632,-1.05655 -0.40641,-1.0565 -0.40636,-1.0566 -0.32509,-1.05654 -0.40637,-1.13782 -0.32509,-1.05655 -0.32513,-1.05655 -0.32505,-1.13782 -0.32509,-1.05659 -0.24382,-1.13778 -0.32509,-1.13782 -0.24382,-1.0565 -0.24382,-1.13786 -0.1625,-1.13782 -0.24386,-1.13782 -0.16255,-1.13782 -0.16255,-1.13782 -0.0813,-1.13787 -0.16254,-1.21905 -0.0813,-1.13782 -0.0813,-1.13782 0,-1.13777 -0.0813,-1.21914 0,-1.13782 0,-1.21909 0,-1.13782 0.0813,-1.2191 0.0813,-1.13782 0.0813,-1.21914 0.0813,-1.13777 0.0812,-1.21909 0.16255,-1.2191 0.16254,-1.13782 0.1625,-1.21904 0.24387,-1.13787 0.24382,-1.21909 0.24377,-1.13787 0.32514,-1.21905 0.32509,-1.13782 0.32509,-1.21909 0.40636,-1.13782 0.40637,-1.13782 0.40636,-1.13782 0.48764,-1.13787 0.56891,-1.13777 0.48764,-1.05655 0.56891,-1.13777 0.56891,-1.0566 0.65022,-1.05654 0.65014,-1.05655 0.73146,-1.05655 0.73145,-1.05654 0.73146,-0.97528 0.73146,-1.05655 0.81272,-0.97527 0.81273,-0.894 0.81273,-0.97523 0.894,-0.89405 0.894,-0.894 0.97528,-0.894 0.894,-0.81277 0.97528,-0.89396 0.97527,-0.73146 1.05655,-0.81273 1.05654,-0.73145 1.05651,-0.73141 1.05659,-0.73146 1.05655,-0.65023 1.13782,-0.65013 1.13782,-0.56896 1.13786,-0.56891 1.13778,-0.56891 1.21909,-0.56891 1.13782,-0.48764 1.21909,-0.40636 1.21905,-0.40637 1.21914,-0.40636 1.21909,-0.40636 1.2191,-0.24382 1.30036,-0.32509 1.21909,-0.24382 1.30037,-0.24382 1.21909,-0.16255 1.30037,-0.16254 1.21909,-0.0813 1.30037,-0.0813 1.30036,-0.0813 1.2191,0 1.30036,0.0813 1.2191,0 1.30036,0.0813 1.21909,0.16255 1.30037,0.16255 1.21909,0.16254 1.21914,0.24382 1.21905,0.24382 1.21909,0.32509 1.2191,0.24382 1.13786,0.40636 1.21905,0.40637 1.13782,0.40636 1.13782,0.40637 1.13777,0.48763 1.13787,0.48764 1.13782,0.56891 1.0565,0.56891 1.05659,0.56896 1.05655,0.65013 0.97528,0.65023 0.97523,0.65014 0.97531,0.73146 0.97528,0.81272 0.894,0.73146 0.894,0.81273 0.894,0.81273 0.81273,0.894 0.81278,0.81273 0.81268,0.894 0.73146,0.97532 0.73145,0.89396 0.73146,0.97527 0.65018,0.97527 0.65018,0.97528 0.65019,0.97532 0.65018,0.97523 0.56891,1.05659 0.56891,0.97523 0.56891,1.05659 0.48764,1.0565 0.48763,1.05655 0.48764,0.97528 0.48764,1.05654 0.48764,1.13782 0.40641,1.05655 0.40631,1.05659 0.40637,1.0565 0.32509,1.13782 0.40636,1.05655 0.24382,1.13782 0.32509,1.05655 0.24382,1.13782 0.24378,1.13782 0.24386,1.13787 0.16255,1.0565 0.16254,1.13782 0.16259,1.13786 0.1625,1.13778 0.0813,1.13782 0.0813,1.13782 0.16254,1.13782 0,1.05655 0.0812,1.13782 0.0813,1.13782 0.0813,1.13782 0,1.13786 0,1.0565 0.0812,1.13782 0,1.13778 0,1.13786 0,1.05655 0,1.13778 -0.0812,1.05659 0,1.13786 0,1.13778 -0.0813,1.05655 0,1.13786 -0.0813,1.0565 0,1.13782 -0.0812,1.05655 -0.0813,1.05655 0,1.13782 -0.0813,1.05655 -0.0813,1.13782 -0.0813,1.0565 -0.0813,1.05659 -0.0812,1.05655 -0.0813,1.13782 -0.0813,1.05655 -0.0813,1.05654 -0.0813,1.05655 -0.0813,1.05655 -0.0813,1.05655 -0.0813,1.05659 -0.16259,1.0565 -0.0812,1.05655 -0.0813,1.05655 -0.0813,1.05655 -0.16254,1.05654 -0.0813,1.05655 -0.0812,1.0565 -0.16264,1.05659 -0.0812,1.05655 -0.16254,1.05655 -0.0813,1.05655 -0.16254,0.97527 -0.0812,1.05655 -0.16259,1.05655 -0.0813,0.97527 -0.16255,1.05655 -0.0813,1.05654 -0.16255,0.97528 -0.0813,1.05655 -0.1625,1.0565 -0.0813,0.97532 -0.16254,1.0565 -0.1625,0.97532 -0.0813,1.0565 -0.16255,0.97532 -0.16254,1.0565 -0.0813,0.97532 -0.16254,1.05651 -0.16255,0.97532 -0.0813,0.97527 -0.16255,1.05655 -0.16254,0.97527 -0.16255,0.97528 -0.0813,0.97527 -0.1625,1.05655 -0.16254,0.97527 -0.16255,0.97528 -0.0812,0.97527 -0.16263,1.05655 -0.1625,0.97527 -0.16255,0.97523 -0.16254,0.97532 -0.0812,0.97528 -0.16259,0.97527 -0.16255,0.97527 -0.16254,0.97528 -0.16255,0.97527 -0.16255,0.97532 -0.16254,0.97523 -0.0813,0.97528 -0.16255,0.97527 -0.16255,0.97528 -0.16254,0.97527 -0.16255,0.97527 -0.16254,0.89401 -0.1625,0.97527 -0.1626,0.97523 -0.16254,0.97532 -0.0813,0.97527 -0.16255,0.89401 -0.16259,0.97527 -0.1625,0.97523 -0.16255,0.89405 -0.16254,0.97527 -0.16255,0.97527 -0.16254,0.89401 -0.16255,0.97527 -0.16255,0.97527 -0.1625,0.89401 -0.16259,0.97532 -0.16254,0.89395 -0.16255,0.97523 -0.16254,0.89405 -0.16255,0.97526 -0.16255,0.89396 -0.16254,0.97532 -0.1625,0.894 -0.16264,0.89404 -0.1625,0.97523 -0.16254,0.894 -0.16255,0.97528 -0.16255,0.894 -0.16254,0.89396 -0.16255,0.97532 -0.16254,0.894 -0.16259,0.89395 -7.31452,41.53049 7.63965,-5.68915 7.63965,-5.60778 0.1625,-1.05651 0.24387,-1.13786 0.24382,-1.13782 0.16254,-1.13782 0.24382,-1.13782 0.24382,-1.13782 0.1625,-1.13787 0.24386,-1.13777 0.24382,-1.2191 0.16255,-1.13782 0.24382,-1.13777 0.16254,-1.13787 0.24382,-1.13782 0.24382,-1.21913 0.16254,-1.13778 0.24382,-1.13782 0.16255,-1.21909 0.24382,-1.13778 0.24382,-1.13786 0.1625,-1.2191 0.24386,-1.13786 0.16255,-1.21905 0.24381,-1.13782 0.24382,-1.21909 0.16255,-1.13782 0.24377,-1.2191 0.16264,-1.21909 0.24377,-1.13782 0.16255,-1.21909 0.24382,-1.21905 0.24381,-1.13786 0.16255,-1.2191 0.24386,-1.21909 0.1625,-1.21905 0.24382,-1.21914 0.1625,-1.21908 0.24387,-1.21909 0.16254,-1.21909 0.24382,-1.21905 0.16255,-1.21914 0.24382,-1.21909 0.16254,-1.21909 0.24387,-1.2191 0.1625,-1.21905 0.24382,-1.30036 0.1625,-1.21914 0.24386,-1.21909 0.16255,-1.2191 0.16254,-1.30036 0.24382,-1.21909 0.16255,-1.30037 0.24381,-1.21909 0.16255,-1.2191 0.16255,-1.30036 0.24381,-1.30037 0.16255,-1.21909 0.16255,-1.30037 0.24381,-1.21904 0.16255,-1.30042 0.16255,-1.30036 0.24381,-1.30037 0.16255,-1.21909 0.16255,-1.30037 0.24386,-1.30036 0.1625,-1.30037 0.16255,-1.30041 0.16254,-1.30037 0.16255,-1.30027 0.24382,-1.30037 0.16254,-1.30041 0.16255,-1.30036 0.16254,-1.38164 0.16255,-1.30037 0.16254,-1.30036 0.16255,-1.30037 0.16259,-1.38164 0.1625,-1.30036 0.16255,-1.30037 0.16254,-1.38164 0.16255,-1.30037 0.16254,-1.38163 0.16255,-1.38164 0.16255,-1.30037 0.1625,-1.38164 0.16259,-1.38164 0.0813,-1.30036 0.16255,-1.38164 0.16254,-1.38164 0.16259,-1.38164 0.0812,-1.38164 0.16255,-1.38164 0.0813,-1.38163 0.16255,-1.38164 0.0812,-1.38165 0.16264,-1.38164 0.0812,-1.38163 0.0813,-1.38164 0.16255,-1.46287 0.0813,-1.38168 0.0813,-1.38169 0.0812,-1.46286 0.0813,-1.38164 0.0813,-1.46291 0.0813,-1.38164 0.0813,-1.46291 0,-1.38164 0.0813,-1.46292 0,-1.46286 0.0813,-1.38169 0,-1.46291 0,-1.46291 0,-1.46291 0,-1.46291 0,-1.46291 0,-1.46287 -0.0813,-1.463 0,-1.46287 -0.0813,-1.46291 -0.0813,-1.46291 -0.0813,-1.54414 -0.16259,-1.463 -0.0812,-1.46287 -0.16254,-1.46291 -0.16255,-1.54419 -0.24382,-1.46291 -0.24382,-1.46286 -0.24382,-1.46301 -0.24382,-1.54414 -0.32509,-1.46291 -0.32513,-1.46291 -0.40632,-1.46287 -0.40637,-1.463 -0.48759,-1.46286 -0.40641,-1.38164 -0.56891,-1.46291 -0.56891,-1.46292 -0.56891,-1.38163 -0.56891,-1.46292 -0.56891,-1.38163 -0.65018,-1.38164 -0.73146,-1.46292 -0.65018,-1.38168 -0.73146,-1.38159 -0.73145,-1.30037 -0.81278,-1.38168 -0.81268,-1.3816 -0.81273,-1.30036 -0.894,-1.30037 -0.97527,-1.30036 -0.89401,-1.30037 -0.97532,-1.21909 -1.0565,-1.2191 -1.05654,-1.21909 -1.05655,-1.21909 -1.13782,-1.13782 -1.2191,-1.05655 -1.21909,-1.05655 -1.21909,-1.05653 -1.21909,-1.05657 -1.38164,-0.89399 -1.30037,-0.97529 -1.38164,-0.89399 -1.38164,-0.81272 -1.46291,-0.81273 -1.46286,-0.73145 -1.46301,-0.73148 -1.54414,-0.65016 -1.54418,-0.65018 -1.54414,-0.65019 -1.54423,-0.48764 -1.62546,-0.56891 -1.6255,-0.40638 -1.62541,-0.48762 -1.62546,-0.3251 -1.70673,-0.32508 -1.62546,-0.32511 -1.70673,-0.24381 -1.70673,-0.16254 -1.70673,-0.16256 -1.70673,-0.0813"
       style="fill:#4d75a2;fill-opacity:0.4642857;stroke:#000000;stroke-width:0.32509147999999999;stroke-linecap:round;stroke-linejoin:round;stroke-miterlimit:10;stroke-opacity:1;stroke-dasharray:none"
       id="path22" /><path
       d="m 552.06883,279.32659 4.06365,-5.60781 -0.97532,0 -1.0565,-0.0813 -1.05655,0 -0.97528,-0.0813 -1.05654,0 -1.05655,-0.0813 -1.05655,0 -1.05655,-0.0813 -0.97527,0 -1.05655,-0.0813 -1.05654,0 -1.05651,-0.0813 -1.05659,0 -1.05655,-0.0813 -1.05654,0 -1.05655,-0.0813 -1.05655,0 -1.05655,-0.0813 -1.0565,0 -1.13786,-0.0813 -1.0566,0 -1.0565,-0.0813 -1.05654,0 -1.13782,-0.0813 -1.05655,0 -1.05659,-0.0813 -1.05651,0 -1.13782,0 -1.05654,-0.0813 -1.13782,0 -1.05655,-0.0813 -1.13782,0 -1.05655,-0.0813 -1.13782,0 -1.05655,0 -1.13782,-0.0813 -1.05654,0 -1.13782,-0.0813 -1.13782,0 -1.13782,0 -1.05655,-0.0813 -1.13782,0 -1.13782,0 -1.13782,-0.0813 -1.13787,0 -1.13777,0 -1.05655,-0.0813 -1.13787,0 -1.13777,0 -1.13782,-0.0813 -1.21909,0 -1.13778,0 -1.13786,0 -1.13782,-0.0813 -1.13782,0 -1.13782,0 -1.2191,0 -1.13782,-0.0813 -1.13782,0 -1.21909,0 -1.13782,0 -1.13782,0 -1.21909,0 -1.13782,0 -1.2191,-0.0813 -1.13777,0 -1.21914,0 -1.13782,0 -1.21909,0 -1.21905,0 -1.21914,0 -1.13782,0 -1.21909,0 -1.21914,0 -1.21905,0 -1.21909,0 -1.21909,0 -1.13787,0 -1.21905,0.0813 -1.21909,0 -1.30037,0 -1.21911,0 -1.21909,0.0813 -1.21914,0 -1.21905,0 -1.21909,0.0813 -1.30037,0 -1.21909,0 -1.21909,0.0813 -1.30037,0 -1.21905,0.0813 -1.21913,0.0813 -1.30037,0 -1.21909,0.0813 -1.30037,0.0813 -1.21914,0.0813 -1.30036,0 -1.30028,0.0813 -1.21914,0.0813 -1.30036,0.16256 -1.30037,0.0813 -1.21909,0.0813 -1.30037,0.0813 -1.30036,0.16254 -1.21914,0.0813 -1.3003,0.16256 -1.30036,0.16254 -1.30041,0.0813 -1.30037,0.16254 -1.21909,0.16254 -1.30037,0.16257 -1.30036,0.24381 -1.30037,0.16254 -1.30036,0.16256 -1.30042,0.24381 -1.30036,0.16254 -1.30028,0.24381 -1.30036,0.16257 -1.30041,0.24381 -1.30037,0.2438 -1.38164,0.24384 -1.30036,0.24381 -1.30037,0.24384 -1.30037,0.24381 -1.38164,0.2438 -1.30036,0.24384 -1.30037,0.32508 -1.38164,0.2438 -1.30036,0.32511 -1.30037,0.32508 -1.38164,0.32511 -1.30036,0.32507 -1.30037,0.32511 -1.38164,0.32508 -1.30041,0.40637 -1.38159,0.32508 -1.30037,0.40638 -1.30036,0.40637 -1.38169,0.40635 -1.30027,0.40637 -1.38169,0.48765 -1.30036,0.40635 -1.30037,0.48764 -1.38159,0.48765 -1.30041,0.48761 -1.30037,0.48765 -1.38164,0.48765 -1.30036,0.56891 -1.30037,0.48762 -1.38164,0.56891 -1.30036,0.56892 -1.30037,0.56891 -1.30037,0.56891 -1.30036,0.65019 -1.30037,0.56888 -1.30036,0.65019 -1.30037,0.65019 -1.30037,0.65018 -1.30036,0.65018 -1.21909,0.65019 -1.30037,0.73145 -1.30037,0.73146 -1.21909,0.65018 -1.30037,0.73145 -1.21909,0.73148 -1.21905,0.73145 -1.21913,0.81273 -1.2191,0.73145 -1.21909,0.81273 -1.21909,0.73145 -1.21905,0.81272 -1.21914,0.81275 -1.13782,0.81272 -1.21909,0.894 -1.13782,0.81272 -1.13782,0.89402 -1.2191,0.81273 -1.0565,0.89399 -1.13786,0.89399 -1.13782,0.89402 -1.13782,0.894 -1.05655,0.89399 -1.05659,0.89402 -1.05651,0.97526 -1.05654,0.89399 -1.05655,0.97529 -1.05655,0.97527 -1.05655,0.97528 -0.97527,0.97527 -0.97527,0.97529 -0.97528,0.97526 -0.97527,0.97529 -0.97532,0.97526 -0.89396,1.05656 -0.97527,0.97526 -0.89405,1.05656 -0.89396,1.05653 -0.894,1.05656 -0.894,1.05654 -0.81273,1.05655 -0.894,1.05654 -0.81273,1.05655 -0.81273,1.13783 -0.73145,1.05654 -0.81273,1.13783 -0.73146,1.05653 -0.73145,1.13783 -0.81273,1.13782 -0.65018,1.05654 -0.73146,1.13783 -0.73146,1.13783 -0.65018,1.1378 -0.65018,1.13783 -0.65019,1.21909 -0.65018,1.13783 -0.65018,1.13781 -0.65018,1.13783 -0.56891,1.13782 -0.65019,1.21907 -0.56891,1.13783 -0.56891,1.13783 -0.65014,1.13781 -0.56895,1.21909 -0.56891,1.13783 -0.48764,1.13783 -0.56891,1.21907 -0.56895,1.13783 -0.48759,1.13783 -0.48764,1.2191 -0.56891,1.1378 -0.48768,1.2191 -0.40632,1.21909 -0.48764,1.13781 -0.48764,1.21909 -0.40636,1.13783 -0.40637,1.2191 -0.48763,1.2191 -0.40637,1.13781 -0.40636,1.21909 -0.40637,1.2191 -0.40636,1.2191 -0.32505,1.1378 -0.40641,1.2191 -0.40636,1.2191 -0.32509,1.13782 -0.40637,1.21908 -0.32509,1.2191 -0.40636,1.13783 -0.32509,1.21909 -0.3251,1.13781 -0.40636,1.21909 -0.32509,1.2191 -0.32509,1.13783 -0.3251,1.21906 -0.32509,1.13786 -0.32509,1.2191 -0.32509,1.13782 -0.32509,1.13777 -0.32509,1.21914 -0.32514,1.13782 -0.32505,1.21909 -0.32509,1.13782 -0.32509,1.13782 -0.24382,1.2191 -0.32509,1.13777 -0.32504,1.13787 -0.32514,1.13782 -0.24382,1.21909 -0.32509,1.13782 -0.32509,1.13782 -0.24387,1.13782 -0.32504,1.13777 -0.24378,1.13787 -0.32513,1.13782 -0.24382,1.13777 -0.32509,1.13787 -0.24382,1.13782 -0.32514,1.13778 -0.24377,1.13786 -0.32505,1.13782 -0.24386,1.13778 -0.32509,1.13786 -0.24382,1.13782 -0.24382,1.13778 -0.32509,1.13786 -0.24382,1.05655 -0.24382,1.13777 -0.32514,1.13787 -0.24377,1.13782 -0.24382,1.0565 -0.24382,1.13787 -0.32509,1.13782 -0.24386,1.05654 -0.24378,1.13782 -0.24381,1.05651 -0.24387,1.13786 -0.32504,1.05655 -0.24378,1.13777 -0.24386,1.0566 -0.24382,1.13782 -0.24386,1.05654 -0.24378,1.13782 -0.24382,1.05651 -0.24386,1.05659 -0.24377,1.13782 -0.24382,1.05655 -0.32509,1.05654 -0.24382,1.13778 -0.24387,1.05659 -0.24377,1.05655 -0.24382,1.05655 -0.24382,1.13782 -0.24381,1.05654 -0.24382,1.05655 -0.16255,1.05655 -0.24382,1.05654 -0.24382,1.05655 -0.24381,1.05655 -0.24382,1.05655 -0.24382,1.05654 -0.24382,1.05655 -0.24382,1.05653 -0.24382,1.05651 -0.24382,1.05659 -0.16254,1.05655 -0.24382,1.05654 -0.24382,1.05655 -0.24382,1.05655 -0.24382,0.97527 -0.24382,1.05655 -0.16254,1.05655 -0.24382,1.0565 -0.24382,0.97532 -0.24382,1.0565 -0.24382,1.05659 -0.16254,1.05655 -0.24382,0.97528 -0.24382,1.05654 -0.24382,0.97528 -0.16254,1.05654 -0.24382,1.05655 -0.24382,0.97528 -0.24382,1.05654 -0.16254,0.97528 -0.24382,1.05655 -0.24382,0.97527 -0.16255,1.05655 -0.24382,0.97527 -0.24381,0.97528 -0.16255,1.05654 -0.24382,0.97528 -0.24382,1.05655 -0.16254,0.97527 -0.24382,0.97523 -0.16255,0.97532 -0.24382,1.0565 -0.24381,0.97532 -0.16255,0.97527 -0.24382,0.97528 -0.16254,1.05655 5.85164,-2.43819 0.16255,-0.894 0.24382,-0.97528 0.16254,-0.97532 0.24382,-0.97522 0.24382,-0.97528 0.16255,-0.97527 0.24381,-0.97528 0.16255,-0.97527 0.24382,-0.97528 0.24382,-0.97532 0.16254,-0.89395 0.24382,-0.97523 0.16255,-1.05659 0.24382,-0.97523 0.24381,-0.97532 0.16255,-0.97528 0.24382,-0.97527 0.24382,-0.97528 0.16254,-0.97527 0.24382,-0.97528 0.24382,-0.97522 0.24382,-1.0566 0.16254,-0.97523 0.24382,-0.97532 0.24382,-0.97527 0.24377,-1.05655 0.1626,-0.97527 0.24381,-0.97528 0.24382,-0.97527 0.24382,-1.05655 0.16255,-0.97527 0.24377,-1.05655 0.24386,-0.97527 0.24382,-0.97528 0.24378,-1.05655 0.16259,-0.97527 0.24382,-1.05655 0.24381,-0.97526 0.24382,-1.05655 0.24382,-0.97527 0.24382,-1.05655 0.24382,-1.05655 0.16254,-0.97527 0.24378,-1.05655 0.24386,-0.97527 0.24382,-1.05655 0.24386,-1.05655 0.24378,-1.05654 0.24382,-0.97528 0.24386,-1.05654 0.24377,-1.05655 0.24382,-1.05659 0.24382,-0.97523 0.24382,-1.0566 0.24382,-1.0565 0.24382,-1.05659 0.24382,-1.0565 0.24381,-1.05655 0.24382,-1.05655 0.24382,-1.05654 0.24382,-1.05655 0.24382,-1.05655 0.24382,-1.05659 0.32509,-1.0565 0.24382,-1.0566 0.24382,-1.0565 0.24381,-1.05655 0.24382,-1.05654 0.24382,-1.05655 0.32509,-1.05655 0.24382,-1.13782 0.24382,-1.05659 0.24382,-1.0565 0.32514,-1.05655 0.24377,-1.13787 0.24382,-1.0565 0.24382,-1.05659 0.32509,-1.13777 0.24386,-1.05655 0.24377,-1.05655 0.32505,-1.13782 0.24386,-1.05659 0.3251,-1.13778 0.24381,-1.05654 0.3251,-1.13787 0.24381,-1.0565 0.3251,-1.13782 0.24381,-1.05655 0.3251,-1.13782 0.24382,-1.05659 0.32509,-1.13778 0.24382,-1.13782 0.32509,-1.05659 0.32509,-1.13777 0.24382,-1.13782 0.32509,-1.13787 0.32509,-1.0565 0.24382,-1.13782 0.32509,-1.13787 0.32514,-1.13777 0.32504,-1.13782 0.32509,-1.05655 0.3251,-1.13782 0.32504,-1.13782 0.32514,-1.13782 0.32509,-1.13782 0.32509,-1.13782 0.32505,-1.13785 0.32513,-1.1378 0.3251,-1.13783 0.32509,-1.13783 0.32509,-1.13781 0.40636,-1.13782 0.32505,-1.13783 0.40641,-1.1378 0.32505,-1.13783 0.4064,-1.13783 0.32514,-1.1378 0.40632,-1.13783 0.40637,-1.13783 0.40636,-1.21907 0.40636,-1.13783 0.40641,-1.13783 0.40632,-1.13783 0.40637,-1.1378 0.40636,-1.13783 0.48764,-1.13783 0.40636,-1.1378 0.48759,-1.13783 0.48769,-1.13782 0.48763,-1.13781 0.48769,-1.05656 0.48759,-1.13783 0.56891,-1.1378 0.48764,-1.13783 0.56891,-1.05653 0.56891,-1.13783 0.56891,-1.13783 0.56891,-1.05653 0.56891,-1.13783 0.56891,-1.13783 0.56891,-1.05653 0.65018,-1.13783 0.56891,-1.05656 0.65014,-1.1378 0.65023,-1.05656 0.65013,-1.1378 0.65023,-1.05656 0.65018,-1.13783 0.65019,-1.05653 0.73145,-1.05656 0.65019,-1.05653 0.73141,-1.05656 0.73145,-1.13783 0.73155,-0.97526 0.73145,-1.05656 0.81269,-1.05653 0.73145,-1.05656 0.81273,-0.97526 0.81273,-1.05656 0.81273,-0.97527 0.894,-1.05656 0.81273,-0.97526 0.894,-0.97529 0.894,-0.97526 0.894,-0.97526 0.89401,-0.97529 0.97527,-0.97526 0.894,-0.89402 0.97528,-0.97527 0.894,-0.89399 0.97527,-0.97529 1.05655,-0.89399 0.97527,-0.89402 0.97528,-0.894 1.05655,-0.89399 0.97527,-0.89399 1.05655,-0.89402 1.05655,-0.81272 1.0565,-0.894 1.05659,-0.81275 1.13787,-0.89399 1.0565,-0.81272 1.05654,-0.81273 1.13782,-0.81272 1.13782,-0.81275 1.13782,-0.81272 1.13778,-0.73145 1.13787,-0.81273 1.13782,-0.73145 1.13782,-0.81273 1.21909,-0.73145 1.13782,-0.73148 1.21909,-0.73145 1.13778,-0.73146 1.21913,-0.65018 1.2191,-0.73145 1.21909,-0.65019 1.13787,-0.65019 1.21904,-0.65018 1.2191,-0.65018 1.30036,-0.65019 1.2191,-0.65018 1.21909,-0.65016 1.21905,-0.56891 1.30036,-0.56892 1.21914,-0.56891 1.21909,-0.56892 1.30037,-0.56891 1.21909,-0.56891 1.30041,-0.56889 1.21905,-0.48765 1.30037,-0.48764 1.21909,-0.48765 1.30037,-0.48762 1.30036,-0.48764 1.2191,-0.48764 1.30036,-0.48762 1.30041,-0.40638 1.21905,-0.40637 1.30037,-0.40635 1.30036,-0.40637 1.2191,-0.40635 1.30036,-0.40638 1.30037,-0.32508 1.21909,-0.40637 1.30041,-0.32511 1.30037,-0.32508 1.21905,-0.3251 1.30036,-0.32508 1.30037,-0.32508 1.21909,-0.3251 1.30037,-0.24381 1.30036,-0.32511 1.21914,-0.24381 1.30037,-0.24383 1.21904,-0.32508 1.30037,-0.24381 1.21909,-0.24384 1.30037,-0.24381 1.21909,-0.16253 1.30037,-0.24384 1.21909,-0.24381 1.30037,-0.16254 1.21909,-0.24383 1.21909,-0.16254 1.30037,-0.24381 1.21909,-0.16254 1.21914,-0.16257 1.21905,-0.24381 1.30036,-0.16254 1.2191,-0.16256 1.21909,-0.16254 1.21909,-0.0813 1.21907,-0.16254 1.21914,-0.16254 1.21909,-0.0813 1.30037,-0.16253 1.21909,-0.0813 1.21909,-0.0813 1.21905,-0.16255 1.21914,-0.0813 1.21909,-0.0813 1.21909,-0.0813 1.2191,-0.0813 1.21904,-0.0813 1.21914,0 1.13782,-0.0813 1.2191,-0.0813 1.21904,0 1.21914,-0.0813 1.21909,-0.0813 1.13783,0 1.21913,-0.0813 1.21905,0 1.13782,-0.0813 1.21909,0 1.21914,0 1.13778,-0.0813 1.21911,0 1.13782,0 1.21909,-0.0813 1.13782,0 1.13782,0 1.2191,0 1.13782,0 1.13782,-0.0813 1.21909,0 1.13782,0 1.13782,0 1.13782,0 1.13786,0 1.13778,0 1.13782,0 1.21909,0 1.13778,0 1.13786,0 1.05655,0 1.13778,0 1.13786,0 1.13782,0 1.13782,0 1.13782,0 1.05655,0.0813 1.13782,0 1.13782,0 1.13782,0 1.05655,0 1.13782,0 1.05654,0.0813 1.13782,0 1.13782,0 1.05655,0 1.13782,0 1.05655,0.0813 1.05655,0 1.13782,0 1.0565,0 1.05659,0.0813 1.13782,0 1.05655,0 1.05655,0 1.0565,0.0813 1.13786,0 1.0566,0 1.0565,0.0813 1.05654,0 1.05655,0 1.05655,0 1.05655,0.0813 1.05654,0 1.0566,0 1.0565,0.0813 1.05655,0 1.05654,0 1.05655,0.0813 1.05655,0 0.97527,0.0813 1.05655,0 1.05655,0 1.0565,0.0813 0.97532,0 1.0565,0 1.05659,0.0813 0.97523,0 1.05659,0.0813 1.05655,0 0.97528,0 1.05654,0.0813 0.97528,0 1.05655,0.0813 0.97527,0 1.05655,0.0813 0.97527,0 0.97523,0 1.05659,0.0813 0.97523,0 0.97532,0.0813 1.0565,0 0.97532,0.0813"
       style="fill:#4d75a2;fill-opacity:0.4642857;stroke:#000000;stroke-width:0.32509147999999999;stroke-linecap:round;stroke-linejoin:round;stroke-miterlimit:10;stroke-opacity:1;stroke-dasharray:none"
       id="path24" /><path
       d="m 302.46066,328.36042 -1.0565,0.97528 -0.97532,1.05654 -0.97528,0.97528 -0.89395,1.05654 -0.97537,1.05655 -0.894,1.05655 -0.89396,1.13782 -0.81273,1.05655 -0.81272,1.13782 -0.81273,1.13782 -0.81273,1.13786 -0.73146,1.13778 -0.81273,1.13782 -0.73145,1.21909 -0.65019,1.13777 -0.73145,1.21914 -0.65018,1.13782 -0.73146,1.2191 -0.65018,1.21904 -0.56891,1.13787 -0.65019,1.21909 -0.65018,1.2191 -0.56891,1.21913 -0.56891,1.21905 -0.56891,1.21909 -0.56891,1.2191 -0.48764,1.21909 -0.56891,1.21914 -0.48763,1.21905 -0.48764,1.21909 -0.48764,1.30037 -0.48759,1.21909 -0.48768,1.21909 -0.40637,1.21905 -0.40632,1.30037 -0.48768,1.21913 -0.40636,1.30037 -0.40637,1.21909 -0.32509,1.2191 -0.40632,1.30041 -0.40641,1.21904 -0.32504,1.2191 -0.40641,1.30036 -0.32514,1.2191 -0.40632,1.21909 -0.32514,1.30037 -0.32504,1.21904 -0.40637,1.21914 -0.32509,1.30037 -0.32509,1.21909 -0.32509,1.21909 -0.32514,1.2191 -0.32504,1.30036 -0.32509,1.2191 -0.24382,1.21909 -0.3251,1.21909 -0.32509,1.2191 -0.32504,1.21909 -0.24387,1.2191 -0.32509,1.21909 -0.32509,1.21909 -0.24382,1.21909 -0.32513,1.2191 -0.24378,1.21909 -0.32504,1.21909 -0.24387,1.2191 -0.32509,1.21909 -0.24382,1.21909 -0.32509,1.13782 -0.24382,1.2191 -0.24382,1.21909 -0.32509,1.21909 -0.24386,1.13782 -0.24378,1.21909 -0.32504,1.2191 -0.24387,1.13786 -0.24381,1.21905 -0.24387,1.13782 -0.24377,1.21909 -0.32505,1.13782 -0.24386,1.2191 -0.24382,1.13782 -0.24377,1.21909 -0.24387,1.13778 -0.24382,1.13786 -0.24386,1.21909 -0.24377,1.13787 -0.24382,1.13777 -0.24387,1.2191 -0.24377,1.13782 -0.24382,1.13777 -0.24382,1.13787 -0.24381,1.21909 -0.24382,1.13787 -0.24382,1.13777 -0.24382,1.13782 -0.24382,1.13782 -0.24382,1.13782 -0.24382,1.13782 -0.24382,1.13782 -0.16254,1.13778 -0.24382,1.13786 -0.24386,1.13782 -0.24378,1.13782 -0.24382,1.13782 -0.16254,1.13782 -0.24382,1.05655 -0.24382,1.13782 -0.24382,1.13782 -0.16254,1.13778 -0.24382,1.05659 -0.24387,1.13786 -0.24377,1.13778 -0.16254,1.05655 -0.24382,1.13786 -0.24382,1.13778 -0.16255,1.05654 -0.24377,1.13778 -0.24386,1.05659 -0.16255,1.13782 -0.24382,1.05655 -0.24382,1.1378 -0.16254,1.05655 -0.24378,1.13782 -0.16263,1.05655 -0.24378,1.05655 -0.24381,1.13782 -0.16255,1.05659 -0.24382,1.0565 -0.16254,1.13782 -0.24387,1.05655 -0.1625,1.05655 -0.24382,1.0565 -0.1625,1.13786 -0.24386,1.05655 -0.16255,1.05655 -0.24382,1.05655 -0.16254,1.0565 -0.24382,1.05659 -0.16255,1.05655 -0.24386,1.05654 -0.1625,1.0566 -0.24382,1.0565 -0.1625,1.05655 -0.16264,1.05654 -0.24377,1.05655 -0.16255,1.05655 -0.24381,1.05655 -0.16255,1.05659 -0.16255,1.0565 -0.24381,0.97532 -0.16255,1.0565 -0.24382,1.05655 -0.16254,1.05655 -0.16255,0.97527 -0.24382,1.05655 -0.16254,1.05655 -0.16255,1.05654 -0.24382,0.97528 -0.16254,1.05654 4.63255,-4.87637 0.16255,-0.97527 0.1625,-1.05655 0.16263,-0.97527 0.24378,-0.97528 0.16254,-0.97527 0.1625,-0.97532 0.24387,-1.0565 0.16254,-0.97532 0.16255,-0.97523 0.24382,-0.97528 0.16254,-1.05654 0.16255,-0.97528 0.24382,-1.05655 0.16254,-0.97527 0.16255,-0.97528 0.24382,-1.05654 0.16254,-0.97528 0.16255,-1.05654 0.24382,-0.97528 0.16254,-1.05655 0.24382,-0.97527 0.16255,-1.05655 0.24377,-0.97527 0.16264,-1.05655 0.1625,-1.05655 0.24381,-0.97527 0.1625,-1.05655 0.24387,-1.05659 0.16254,-0.97523 0.24382,-1.05659 0.16255,-1.0565 0.24382,-1.05655 0.16254,-0.97528 0.24387,-1.05654 0.1625,-1.05655 0.24382,-1.05653 0.1625,-1.05655 0.24386,-1.05655 0.16255,-0.97527 0.24381,-1.05655 0.24382,-1.05659 0.16255,-1.05651 0.24377,-1.05654 0.16264,-1.05655 0.24377,-1.05655 0.24382,-1.05654 0.16255,-1.05655 0.24382,-1.13782 0.24381,-1.05655 0.16259,-1.05655 0.24378,-1.05654 0.24382,-1.05655 0.16254,-1.0565 0.24382,-1.13787 0.24382,-1.05659 0.1625,-1.0565 0.24386,-1.13782 0.24382,-1.05655 0.24387,-1.05655 0.1625,-1.13782 0.24382,-1.05655 0.24381,-1.05654 0.24382,-1.13778 0.24382,-1.05659 0.1625,-1.13782 0.24387,-1.05655 0.24381,-1.13782 0.24387,-1.05655 0.24377,-1.13782 0.24382,-1.13782 0.24386,-1.05654 0.24378,-1.13782 0.24382,-1.05655 0.24381,-1.13782 0.24382,-1.13782 0.24382,-1.13782 0.24382,-1.05655 0.24382,-1.13782 0.24382,-1.13786 0.24382,-1.13778 0.24381,-1.13782 0.24382,-1.13782 0.24382,-1.05655 0.24382,-1.13782 0.24382,-1.13782 0.24382,-1.13782 0.32509,-1.13782 0.24382,-1.13786 0.24382,-1.13778 0.24381,-1.13782 0.3251,-1.21909 0.24382,-1.13778 0.24381,-1.13786 0.3251,-1.13782 0.24386,-1.13782 0.24377,-1.13782 0.32505,-1.21909 0.24386,-1.13782 0.32509,-1.13782 0.24382,-1.13782 0.32509,-1.2191 0.24382,-1.13782 0.32509,-1.13782 0.32505,-1.2191 0.24386,-1.13782 0.3251,-1.21904 0.32509,-1.13787 0.32509,-1.21909 0.32509,-1.13787 0.24382,-1.21905 0.32509,-1.13782 0.32509,-1.21909 0.32514,-1.13782 0.40632,-1.21905 0.32513,-1.13786 0.32505,-1.21909 0.32509,-1.13787 0.40637,-1.21905 0.32509,-1.21909 0.40636,-1.13782 0.32509,-1.21914 0.40637,-1.21905 0.40636,-1.13782 0.40641,-1.21909 0.40632,-1.13782 0.40637,-1.21905 0.40636,-1.21914 0.40636,-1.13782 0.48764,-1.21909 0.48759,-1.13782 0.40641,-1.13782 0.56891,-1.21909 0.48769,-1.13782 0.48759,-1.13782 0.56891,-1.2191 0.48763,-1.13782 0.56891,-1.13782 0.56891,-1.13782 0.65014,-1.13782 0.56896,-1.13777 0.56891,-1.13787 0.65018,-1.13782 0.65018,-1.13782 0.65019,-1.05655 0.65018,-1.13782 0.73146,-1.13782 0.65018,-1.05654 0.73145,-1.13782 0.73146,-1.05655 0.81277,-1.05655 0.73137,-1.05654 0.81277,-1.05655 0.81273,-1.0565 0.81278,-1.0566 0.894,-0.97523 0.89395,-1.05659 0.89401,-0.97523 0.894,-0.97532 0.97523,-0.894 0.894,-0.97527 1.05659,-0.894 0.97523,-0.89401 1.05659,-0.89404 0.97523,-0.81269 1.13782,-0.894 1.05659,-0.81273 1.13782,-0.81268 1.0566,-0.73155 1.13773,-0.81268 1.21918,-0.73146 1.13782,-0.73145 1.21909,-0.65018 1.21905,-0.73146 1.21909,-0.65018 1.21905,-0.56891 1.21918,-0.65019 1.30033,-0.56891 1.30041,-0.56891 1.21909,-0.56891 1.38155,-0.48763 1.30041,-0.48764 1.30032,-0.48764 1.38168,-0.40636 1.30041,-0.40637 1.38155,-0.40636 1.38169,-0.32509 1.38164,-0.32509 1.38168,-0.3251 1.46291,-0.24381 1.38164,-0.24382 1.38155,-0.16255 1.46291,-0.16254 1.38168,-0.16255 1.46292,-0.0813 1.38163,-0.0813 1.46292,0 1.38168,-0.0813 1.46291,0.0813 1.38155,0 1.463,0.16255 1.38155,0.0813 1.46291,0.16255 1.38169,0.16254 1.46291,0.24382 1.38164,0.24382 1.38168,0.24382 1.38155,0.32509 1.38168,0.32509 1.38164,0.32509 1.38171,0.40637 1.30032,0.40636 1.38164,0.40637 1.30032,0.48763 1.30041,0.48764 1.30032,0.56891 1.30041,0.48764 1.21909,0.56891 1.30042,0.65018 1.21909,0.56891 1.21905,0.65014 1.21909,0.73155 1.13782,0.65013 1.21905,0.73146 1.13786,0.73146 1.13782,0.81272 1.0566,0.81273 1.13782,0.81273 1.05645,0.81269 1.05659,0.89404 0.97523,0.894 0.97537,0.89401 0.97523,0.894 0.97523,0.97527 0.97536,0.894 0.89396,0.97528 0.894,1.05654 0.81277,0.97528 0.89401,0.97523 0.81272,1.05659 0.81264,1.05655 0.81278,1.05655 0.7315,1.05659 0.73141,1.0565 0.7315,1.05655 0.73136,1.05654 0.73155,1.13782 0.65014,1.0566 0.7315,1.13777 0.65018,1.05655 0.65014,1.13777 0.56891,1.13787 0.56891,1.13782 0.56891,1.13782 0.56891,1.13782 0.56891,1.13782 0.48759,1.13787 0.48768,1.21904 0.48764,1.13782 0.40632,1.2191 0.48768,1.13782 0.40632,1.21909 0.40646,1.13782 0.40632,1.21909 0.32504,1.2191 0.40646,1.13782 0.32509,1.21909 0.32505,1.21909 0.40631,1.13787 0.3251,1.21905 0.24381,1.21909 0.3251,1.13782 0.32509,1.21914 0.24382,1.21904 0.32509,1.13782 0.24382,1.2191 0.32509,1.21909 0.24382,1.13778 0.24386,1.21913 0.24382,1.13782 0.24386,1.2191 0.24382,1.13782 0.24373,1.21909 0.24382,1.13782 0.24386,1.21914 0.24382,1.13777 0.16259,1.2191 0.24373,1.13782 0.24386,1.13777 0.16259,1.21914 0.24382,1.13782 0.1625,1.13787 0.24382,1.21905 0.16259,1.13782 0.1625,1.13782 0.24382,1.13777 0.16259,1.13787 0.1625,1.13782 0.24382,1.21914 0.1625,1.13777 0.16259,1.13782 0.16259,1.13782 0.16251,1.13782 0.16259,1.13782 0.16245,1.13782 0.16259,1.05655 0.1625,1.13782 0.16259,1.13787 0.16259,1.13777 0.16251,1.13782 0.16259,1.05659 0.1625,1.13778 0.16259,1.13782 0.16245,1.13782 0.0814,1.05655 0.1625,1.13782 0.16259,1.0565 0.16245,1.13786 0.0814,1.13782 0.1625,1.05655 0.16259,1.13782 0.0812,1.05659 0.16259,1.05651 0.1625,1.13782 0.0812,1.05654 0.1626,1.13782 0.1625,1.05655 0.0814,1.05655 0.16245,1.13782 0.0814,1.0565 0.1625,1.05659 0.0812,1.05655 0.16259,1.05655 0.0812,1.13782 0.1626,1.05654 0.0813,1.05655 0.0812,1.05655 0.16259,1.05655 0.0812,1.05659 0.16259,1.0565 0.0813,1.05655 0.0812,1.05655 0.16259,1.05654 0.0813,1.05655 0.0812,0.97527 0.16259,1.05655 0.0812,1.05655 0.0814,1.0565 0.1625,1.05659 0.0812,0.97523 0.0814,1.0566 0.0812,1.05654 0.16259,0.97528 0.0812,1.05654 0.0813,1.05655 0.0812,0.97528 0.16259,1.05654 0.0812,0.97528 0.0814,1.05655 0.0812,0.97526 0.0813,1.05654 3.57594,3.33219 -0.1625,-1.05655 -0.0812,-1.05654 -0.0814,-1.0566 -0.0812,-1.0565 -0.0812,-1.05653 -0.0814,-1.05655 -0.1625,-1.05655 -0.0812,-1.05654 -0.0814,-1.05655 -0.0812,-1.13782 -0.16259,-1.05655 -0.0812,-1.05655 -0.0813,-1.05654 -0.16259,-1.13782 -0.0812,-1.05655 -0.0813,-1.05655 -0.16259,-1.13782 -0.0812,-1.0565 -0.0812,-1.13787 -0.16257,-1.05659 -0.0813,-1.13777 -0.0812,-1.05655 -0.16259,-1.13787 -0.0812,-1.13777 -0.16259,-1.05655 -0.0813,-1.13777 -0.16259,-1.13787 -0.0812,-1.05655 -0.16259,-1.13777 -0.0812,-1.13787 -0.1625,-1.13782 -0.0814,-1.05654 -0.1625,-1.13782 -0.0812,-1.13782 -0.16259,-1.13782 -0.16259,-1.13782 -0.0812,-1.13782 -0.1625,-1.13778 -0.16259,-1.13786 -0.0812,-1.13782 -0.16259,-1.13782 -0.1625,-1.13782 -0.16259,-1.2191 -0.0812,-1.13782 -0.16259,-1.13782 -0.1625,-1.13782 -0.16259,-1.13786 -0.1625,-1.21905 -0.0814,-1.13782 -0.16246,-1.21909 -0.16259,-1.13782 -0.1625,-1.13783 -0.16259,-1.21909 -0.16259,-1.13782 -0.1625,-1.21914 -0.1626,-1.13777 -0.16245,-1.21909 -0.24386,-1.2191 -0.1626,-1.13782 -0.1625,-1.21909 -0.16259,-1.21909 -0.16245,-1.13782 -0.24387,-1.2191 -0.16259,-1.21904 -0.16245,-1.21914 -0.24387,-1.2191 -0.16259,-1.13782 -0.16245,-1.21904 -0.24387,-1.21914 -0.24381,-1.2191 -0.16251,-1.21909 -0.24381,-1.2191 -0.16259,-1.21904 -0.24387,-1.30037 -0.24382,-1.21914 -0.24373,-1.21909 -0.24381,-1.21909 -0.24387,-1.2191 -0.24382,-1.21904 -0.24386,-1.30042 -0.24382,-1.21909 -0.24373,-1.21909 -0.24382,-1.30037 -0.32509,-1.21914 -0.24382,-1.21904 -0.32509,-1.30037 -0.24386,-1.21909 -0.32505,-1.30037 -0.32509,-1.21909 -0.32518,-1.21909 -0.32509,-1.30037 -0.32505,-1.21905 -0.32509,-1.30041 -0.32509,-1.21909 -0.40632,-1.30037 -0.40641,-1.21909 -0.32509,-1.30037 -0.40632,-1.21914 -0.48768,-1.21904 -0.40632,-1.30037 -0.48768,-1.21909 -0.40641,-1.2191 -0.4876,-1.30036 -0.56891,-1.21909 -0.48763,-1.21905 -0.56891,-1.21914 -0.56896,-1.21909 -0.56891,-1.2191 -0.65014,-1.13777 -0.65018,-1.21914 -0.65014,-1.13782 -0.65027,-1.21909 -0.73141,-1.13782 -0.7315,-1.13782 -0.73137,-1.2191 -0.73154,-1.13782 -0.73137,-1.13782 -0.81277,-1.05654 -0.81273,-1.13782 -0.81278,-1.13782 -0.894,-1.05655 -0.81273,-1.13782 -0.894,-1.05655 -0.894,-1.05659 -0.97523,-1.0565 -0.97523,-1.05655 -0.97532,-0.97528 -0.97527,-1.05654 -0.97532,-0.97528 -1.0565,-0.97532 -1.13782,-0.89395 -1.0566,-0.894 -1.13782,-0.89401 -1.13782,-0.894 -1.13773,-0.894 -1.21918,-0.81273 -1.21905,-0.81273 -1.21909,-0.73145 -1.21905,-0.73146 -1.30045,-0.73145 -1.21905,-0.73146 -1.38169,-0.65018 -1.30032,-0.65019 -1.30041,-0.56891 -1.38155,-0.56891 -1.38168,-0.56891 -1.38164,-0.56891 -1.38168,-0.48763 -1.38155,-0.48764 -1.463,-0.40636 -1.46294,-0.40637 -1.38155,-0.40636 -1.46291,-0.32509 -1.46291,-0.3251 -1.46291,-0.32509 -1.54428,-0.24382 -1.46286,-0.24381 -1.46291,-0.16255 -1.54419,-0.16255 -1.46291,-0.16255 -1.54423,-0.0813 -1.46291,-0.0813 -1.54414,0 -1.46291,0 -1.54414,0.0813 -1.54428,0.0813 -1.46291,0.0813 -1.54414,0.16255 -1.46291,0.16254 -1.46291,0.16255 -1.54414,0.24382 -1.46291,0.32509 -1.46291,0.32509 -1.46292,0.32509 -1.46291,0.40637 -1.463,0.40636 -1.38155,0.40636 -1.46291,0.48764 -1.38168,0.48764 -1.38164,0.48764 -1.38169,0.56891 -1.38154,0.56891 -1.38169,0.56891 -1.30041,0.65018 -1.30032,0.65018 -1.30041,0.65018 -1.30032,0.73146 -1.30041,0.73146 -1.2191,0.73145 -1.21904,0.81273 -1.2191,0.73146 -1.21904,0.81268 -1.21919,0.89405 -1.13773,0.81273 -1.13782,0.894 -1.13782,0.89404 -1.05659,0.89396 -1.13782,0.894 -1.0565,0.97528 -0.97532,0.97527"
       style="fill:#4d75a2;fill-opacity:0.4642857;stroke:#000000;stroke-width:0.32509147999999999;stroke-linecap:round;stroke-linejoin:round;stroke-miterlimit:10;stroke-opacity:1;stroke-dasharray:none"
       id="path26" /><path
       d="m 330.7347,228.28395 0.40637,-1.54418 0.32508,-1.5442 0.40637,-1.46291 0.40638,-1.54418 0.32508,-1.54417 0.40637,-1.54421 0.32509,-1.4629 0.3251,-1.54418 0.40635,-1.46291 0.3251,-1.54418 0.32508,-1.5442 0.32511,-1.46291 0.32508,-1.54418 0.3251,-1.4629 0.32508,-1.46292 0.32511,-1.54419 0.32507,-1.46291 0.32508,-1.46291 0.24384,-1.54419 0.32508,-1.46291 0.3251,-1.46291 0.24381,-1.46292 0.32511,-1.4629 0.24381,-1.46291 0.2438,-1.46292 0.32511,-1.46291 0.24381,-1.46291 0.24384,-1.46292 0.32507,-1.4629 0.24381,-1.38164 0.24384,-1.46291 0.24381,-1.46292 0.2438,-1.38164 0.24384,-1.46291 0.24381,-1.38163 0.24384,-1.46292 0.2438,-1.38164 0.24381,-1.46291 0.24384,-1.38164 0.24381,-1.38163 0.24381,-1.46291 0.16256,-1.38164 0.24381,-1.38165 0.24381,-1.4629 0.24384,-1.38164 0.16253,-1.38164 0.24381,-1.38164 0.24384,-1.38164 0.24381,-1.38163 0.16254,-1.38164 0.24383,-1.38164 0.24381,-1.38165 0.16254,-1.38164 0.24384,-1.38164 0.24381,-1.38164 0.16254,-1.30036 0.24383,-1.38164 0.24381,-1.38164 0.16254,-1.38163 0.24381,-1.30037 0.24384,-1.38164 0.16254,-1.30037 0.2438,-1.38164 0.24384,-1.30036 0.16254,-1.30036 0.24381,-1.38164 0.24383,-1.30036 0.16254,-1.30038 0.24381,-1.38163 0.24384,-1.30037 0.16254,-1.30037 0.24381,-1.30037 0.16256,-1.30036 0.24381,-1.30036 0.24381,-1.30036 0.16257,-1.30038 0.24381,-1.30036 0.16253,-1.30037 0.24381,-1.21909 0.24384,-1.30036 0.16254,-1.30037 0.24381,-1.30037 0.16256,-1.21909 0.24381,-1.30036 0.24381,-1.2191 0.16257,-1.30037 0.24381,-1.21908 0.16254,-1.30037 0.24383,-1.2191 0.16254,-1.30037 0.24381,-1.21908 0.16254,-1.21909 0.24383,-1.219093 0.24381,-1.300366 0.16255,-1.219097 0.24383,-1.219089 0.16254,-1.219097 0.24381,-1.219098 0.16256,-1.219084 0.24381,-1.219098 0.16254,-1.219093 0.24384,-1.219093 0.16254,-1.219088 0.24381,-1.219102 0.16254,-1.219089 0.24383,-1.137815 0.16254,-1.219098 0.24381,-1.219093 0.16256,-1.137825 0.16255,-1.219088 0.2438,-1.219093 0.16254,-1.13782 0.24384,-1.219093 0.16254,-1.137825 0.24382,-1.219089 0.16254,-1.137824 0.24382,-1.219089 0.16255,-1.137815 0.16254,-1.137825 0.24382,-1.219089 0.16255,-1.137824 0.24382,-1.13782 0.16254,-1.137825 0.16255,-1.137816 0.24382,-1.219088 0.16254,-1.137825 0.24382,-1.13782 0.16255,-1.137825 0.16254,-1.137811 0.24382,-1.137825 0.16255,-1.13782 0.16254,-1.137824 0.24382,-1.056543 0.16255,-1.137816 0.24382,-1.137824 0.16254,-1.137821 0.16255,-1.137824 0.24382,-1.056543 0.16254,-1.137825 0.16255,-1.137815 0.24382,-1.056552 0.16254,-1.137816 0.16255,-1.13782 0.24382,-1.056547 0.16254,-1.13782 0.16255,-1.056548 -4.95765,-1.544184 -0.16254,1.056547 -0.16255,1.056547 -0.24382,1.13782 -0.16254,1.137825 -0.16255,1.056543 -0.24382,1.137825 -0.16254,1.056542 -0.24381,1.137825 -0.16257,1.137816 -0.24381,1.056542 -0.16253,1.137825 -0.16257,1.13782 -0.24381,1.137825 -0.16254,1.137811 -0.24381,1.137825 -0.16257,1.056547 -0.24381,1.13782 -0.16253,1.13782 -0.16257,1.137816 -0.24381,1.137825 -0.16254,1.219088 -0.24383,1.137825 -0.16254,1.13782 -0.24381,1.137825 -0.16254,1.137815 -0.24384,1.137821 -0.16253,1.219093 -0.24381,1.13782 -0.16257,1.137824 -0.24381,1.219089 -0.16254,1.137825 -0.24383,1.219088 -0.16254,1.137816 -0.24381,1.137824 -0.16254,1.219089 -0.24384,1.219102 -0.24381,1.137816 -0.16254,1.219097 -0.24383,1.219089 -0.16254,1.137815 -0.24381,1.219102 -0.16257,1.219089 -0.24381,1.219093 -0.24381,1.13782 -0.16253,1.219093 -0.24384,1.219093 -0.16254,1.219089 -0.24381,1.219093 -0.24383,1.219097 -0.16254,1.219089 -0.24381,1.219097 -0.16257,1.300366 -0.24381,1.219098 -0.24381,1.219088 -0.16256,1.219098 -0.24381,1.300357 -0.24381,1.21909 -0.16257,1.2191 -0.2438,1.30037 -0.24381,1.21908 -0.16257,1.30037 -0.24381,1.2191 -0.24381,1.30035 -0.16254,1.2191 -0.24383,1.30037 -0.24381,1.30037 -0.16254,1.21908 -0.24384,1.30037 -0.24381,1.30037 -0.16254,1.30036 -0.24383,1.30037 -0.24381,1.30037 -0.16254,1.30036 -0.24384,1.30036 -0.24381,1.30037 -0.2438,1.30037 -0.16257,1.30037 -0.24381,1.30037 -0.24381,1.30035 -0.24383,1.38165 -0.16254,1.30036 -0.24381,1.30036 -0.24384,1.38164 -0.24381,1.30037 -0.2438,1.30037 -0.16257,1.38164 -0.24381,1.38164 -0.24381,1.30036 -0.24383,1.38164 -0.16254,1.38164 -0.24381,1.30037 -0.24384,1.38163 -0.24381,1.38164 -0.2438,1.38164 -0.24384,1.38164 -0.16254,1.38163 -0.24381,1.30037 -0.24383,1.38164 -0.24381,1.46292 -0.24381,1.38164 -0.24384,1.38164 -0.24381,1.38163 -0.24384,1.38164 -0.16253,1.38164 -0.24381,1.46291 -0.24384,1.38164 -0.24381,1.38163 -0.24381,1.38165 -0.3251,1.46291 -0.24381,1.38164 -0.24381,1.46291 -0.24383,1.38163 -0.24381,1.46292 -0.24384,1.38164 -0.32508,1.46291 -0.24381,1.38164 -0.24383,1.46291 -0.32508,1.46292 -0.24384,1.4629 -0.32508,1.38164 -0.24381,1.46292 -0.3251,1.46291 -0.24381,1.46291 -0.32511,1.4629 -0.32507,1.46293 -0.24384,1.4629 -0.32508,1.54419 -0.3251,1.46291 -0.32508,1.46291 -0.32508,1.46292 -0.3251,1.54417 -0.32508,1.46292 -0.32511,1.46291 -0.40638,1.54418 -0.32507,1.46291 -0.32508,1.5442 -0.40638,1.46291 -0.3251,1.54418 -0.40635,1.4629 -0.32511,1.54421 -0.40635,1.54417 -0.3251,1.46291 -0.40635,1.54418 -0.40637,1.5442 -0.40638,1.54418 -0.32508,1.4629 -0.40637,1.54418 -0.40635,1.54421 -0.40637,1.54417 -0.40636,1.54418 -0.40637,1.54418 -0.40637,1.5442 -0.40635,1.54418 -0.40638,1.54418 -0.40635,1.54417 -0.48764,1.5442 -0.40638,1.54418 -0.40634,1.54418 -0.40638,1.62547 -0.48764,1.54418 -0.40635,1.54418 -0.48764,1.5442 -0.40638,1.54418 -0.48762,1.54417 -0.40638,1.54418 -0.48764,1.54421 -0.48762,1.54417 -0.40637,1.54418 -0.48765,1.5442 -0.48761,1.54418 -0.48765,1.54418 -0.48764,1.54417 -0.40635,1.54421 -0.48765,1.54417 -0.48764,1.54418 -0.48765,1.46291 -0.48761,1.5442 -0.48765,1.54418 -0.48765,1.54418 -0.48761,1.46291 -0.48765,1.5442 -0.48764,1.4629 -0.48764,1.54418 -0.48762,1.46291 -0.48765,1.5442 -0.48764,1.46291 -0.48762,1.46291 -0.48765,1.54417 -0.48764,1.46291 -0.48764,1.46291 -0.48762,1.46293 -0.40638,1.46291 -0.48764,1.46291 -0.48762,1.46291 -0.48764,1.46291 -0.48765,1.4629 -0.40635,1.46294 -0.48764,1.4629 -0.48765,1.46291 -0.40635,1.46291 -0.48764,1.38164 -0.40637,1.4629 -0.48765,1.46291 -0.40635,1.38164 -0.48764,1.46293 -0.40635,1.46291 -0.48765,1.38164 -0.40637,1.4629 -0.40635,1.38164 -0.48765,1.38164 -0.40637,1.46291 -0.40635,1.38164 -0.40637,1.4629 -0.40635,1.38164 -0.48765,1.38164 -0.40637,1.38166 -0.40635,1.46291 -0.40637,1.38164 -0.40638,1.38163 -0.40635,1.38164 -0.40637,1.38164 -0.40635,1.38164 -0.40638,1.38163 -0.40637,1.38164 -0.32508,1.30037 -0.40638,1.38164 -0.40634,1.38164 -0.40638,1.38163 -0.32508,1.38164 -0.40637,1.30037 -0.40638,1.38164 -0.32508,1.38164 -0.40637,1.38163 -0.32508,1.30037 -0.3251,1.38164 -0.40635,1.38164 -0.32511,1.30036 -0.32508,1.38164 -0.3251,1.38164 -0.32508,1.30037 -0.3251,1.38164 -0.40636,1.30036 -0.3251,1.38164 -0.32508,1.30037 -0.3251,1.38164 -0.24381,1.30037 -0.32508,1.30036 -0.32511,1.38164 -0.32507,1.30037 -0.32511,1.30037 -0.32508,1.38164 -0.32511,1.30036 -0.24381,1.30037 -0.3251,1.30034 -0.32508,1.30037 -0.3251,1.30037 -0.24381,1.30037 -0.32511,1.30036 -0.32508,1.30037 -0.24381,1.30037 -0.3251,1.30037 -0.24381,1.30037 -0.32511,1.30036 -0.32507,1.30037 -0.24384,1.21907 -0.32508,1.30036 -0.24381,1.30037 -0.3251,1.30037 -0.24381,1.21909 -0.32511,1.30037 -0.24381,1.21909 -0.3251,1.30041 -0.24381,1.21905 -0.32508,1.30036 -0.24384,1.2191 -0.24381,1.30036 -0.3251,1.21909 -0.24381,1.30037 -0.32508,1.21914 -0.24383,1.21905 -0.24381,1.21909 -0.3251,1.30037 -0.24381,1.21909 -0.24381,1.21909 -0.32511,1.21914 -0.24381,1.21905 -0.24384,1.21909 -0.2438,1.21909 -0.32508,1.2191 -0.24384,1.21909 -0.24381,1.21909 -0.2438,1.2191 -0.32511,1.21909 -0.24381,1.21909 -0.24384,1.2191 -0.2438,1.21909 -0.24381,1.21909 -0.32511,1.13782 -0.24381,1.21909 -0.24384,1.2191 -0.2438,1.13786 -0.24381,1.21905 -0.24384,1.21909 -0.32507,1.13782 -0.24381,1.2191 -0.24384,1.13777 -0.24381,1.21914 -0.24384,1.13782 -0.2438,1.21909 -0.24381,1.13782 -0.24384,1.2191 -0.24381,1.13782 -0.24381,1.13782 -0.24383,1.21909 -0.24381,1.13782 -0.24381,1.13782 -0.24384,1.13782 -0.24381,1.13782 -0.3251,1.21909 -0.24381,1.13782 -0.24381,1.13782 -0.16256,1.13782 -0.24381,1.13787 -0.24381,1.13777 -0.24384,1.13782 -0.24381,1.13782 -0.24381,1.13782 -0.24383,1.13781 -0.24381,1.13787 -0.24381,1.13777 -0.24384,1.13782 -0.24381,1.05659 -0.24383,1.13778 -0.24381,1.13782 -0.24381,1.13782 -0.24383,1.05655 -0.16255,1.13782 -0.2438,1.13782 -0.24384,1.13782 -0.24381,1.05654 -0.24381,1.13782 -0.24383,1.05655 -0.24381,1.13782 -0.16254,1.05655 -0.24384,1.13782 -0.24381,1.0565 -0.2438,1.13787 -0.24384,1.05654 -0.24381,1.13778 -0.16254,1.05659 -0.24383,1.05655 -0.24381,1.13782 -0.24381,1.05655 -0.24384,1.05654 -0.16254,1.13782 -0.24381,1.0566 -0.24383,1.0565 -0.24381,1.05655 -0.16254,1.05654 -0.24384,1.13782 4.8764,1.54419 0.24381,-1.0565 0.16253,-1.13787 0.24381,-1.05659 0.24384,-1.0565 0.24381,-1.05655 0.24384,-1.05655 0.2438,-1.13782 0.16254,-1.05659 0.24384,-1.0565 0.24381,-1.13782 0.24381,-1.05655 0.24383,-1.05655 0.24381,-1.13782 0.24381,-1.05655 0.16257,-1.13782 0.2438,-1.0565 0.24381,-1.13786 0.24384,-1.0566 0.24381,-1.13777 0.24381,-1.05655 0.24384,-1.13786 0.24381,-1.13778 0.2438,-1.05655 0.24384,-1.13777 0.24381,-1.13787 0.24383,-1.05654 0.24381,-1.13778 0.24381,-1.13786 0.24384,-1.13782 0.2438,-1.13782 0.24381,-1.05655 0.24384,-1.13782 0.24381,-1.13782 0.24381,-1.13782 0.24383,-1.13781 0.24381,-1.13777 0.24381,-1.13787 0.24384,-1.13782 0.24381,-1.13782 0.24383,-1.13782 0.24381,-1.13782 0.24381,-1.21909 0.24384,-1.13782 0.24381,-1.13782 0.2438,-1.13787 0.24384,-1.13777 0.24381,-1.2191 0.32511,-1.13782 0.2438,-1.13777 0.24381,-1.21914 0.24384,-1.13782 0.24381,-1.21909 0.24381,-1.13782 0.3251,-1.13782 0.24381,-1.2191 0.24384,-1.21909 0.2438,-1.13777 0.24381,-1.21914 0.32511,-1.13782 0.24381,-1.2191 0.24381,-1.21904 0.24383,-1.13787 0.24381,-1.21909 0.32511,-1.21909 0.24381,-1.2191 0.24381,-1.13782 0.3251,-1.21909 0.24381,-1.21909 0.24383,-1.2191 0.32509,-1.21909 0.2438,-1.21909 0.24384,-1.2191 0.32508,-1.21904 0.24383,-1.21914 0.24381,-1.21909 0.32508,-1.2191 0.24384,-1.21909 0.24381,-1.30032 0.3251,-1.21914 0.24381,-1.21909 0.32511,-1.2191 0.24381,-1.30036 0.32507,-1.21909 0.24384,-1.21905 0.32508,-1.30037 0.24383,-1.21914 0.32508,-1.30036 0.24381,-1.2191 0.32511,-1.30036 0.24381,-1.21909 0.3251,-1.30033 0.24381,-1.21913 0.32511,-1.30037 0.32507,-1.30037 0.24381,-1.21909 0.32511,-1.30036 0.32508,-1.30036 0.24383,-1.30037 0.32508,-1.30037 0.32511,-1.21907 0.24381,-1.30036 0.3251,-1.30037 0.32508,-1.30037 0.32508,-1.30037 0.3251,-1.30037 0.24381,-1.30037 0.32511,-1.38163 0.32507,-1.30037 0.32511,-1.30037 0.32508,-1.30037 0.32511,-1.30036 0.32507,-1.38164 0.32511,-1.30037 0.32508,-1.30034 0.3251,-1.38167 0.32508,-1.30034 0.32511,-1.30037 0.32508,-1.38164 0.3251,-1.30036 0.40635,-1.38164 0.3251,-1.30037 0.32508,-1.38163 0.32511,-1.38164 0.40635,-1.30037 0.3251,-1.38164 0.40635,-1.30037 0.3251,-1.38163 0.40636,-1.38164 0.3251,-1.30037 0.40635,-1.38164 0.40637,-1.38164 0.40638,-1.38163 0.40635,-1.30037 0.40637,-1.38164 0.40635,-1.38164 0.40638,-1.38164 0.40637,-1.30036 0.40635,-1.38164 0.40637,-1.38164 0.40635,-1.38163 0.40638,-1.38164 0.40637,-1.38167 0.40635,-1.38164 0.48764,-1.4629 0.40638,-1.38164 0.40635,-1.38164 0.48764,-1.38164 0.40635,-1.38163 0.40638,-1.46291 0.48764,-1.38164 0.40635,-1.38163 0.48764,-1.46291 0.40638,-1.38164 0.48762,-1.46291 0.40637,-1.38166 0.48764,-1.46291 0.48762,-1.38164 0.40638,-1.46291 0.48764,-1.4629 0.48765,-1.38164 0.48762,-1.46291 0.40637,-1.46291 0.48765,-1.46293 0.48761,-1.38164 0.48765,-1.4629 0.48765,-1.46291 0.48761,-1.46291 0.48765,-1.46291 0.48764,-1.46291 0.48764,-1.46293 0.48762,-1.54418 0.48765,-1.4629 0.48764,-1.46291 0.48762,-1.46291 0.48765,-1.5442 0.48764,-1.46291 0.48765,-1.4629 0.56888,-1.54418 0.48765,-1.46291 0.48764,-1.5442 0.48765,-1.54418 0.48762,-1.46291 0.48764,-1.54418 0.48764,-1.5442 0.48765,-1.46291 0.48762,-1.54418 0.48764,-1.54417 0.48765,-1.5442 0.48762,-1.54418 0.48764,-1.54418 0.40638,-1.54417 0.48761,-1.54421 0.48765,-1.54418 0.48764,-1.54417 0.40635,-1.5442 0.48765,-1.54418 0.40637,-1.54418 0.48765,-1.54418 0.40634,-1.5442 0.48765,-1.54418 0.40634,-1.54417 0.40638,-1.54421 0.48764,-1.62544 0.40635,-1.54418 0.40638,-1.54421 0.40638,-1.54417 0.40634,-1.54418 0.40638,-1.54418 0.40635,-1.5442 0.40637,-1.54418 0.40638,-1.54418 0.40634,-1.54417 0.32511,-1.5442 0.40635,-1.54418"
       style="fill:#4d75a2;fill-opacity:0.4642857;stroke:#000000;stroke-width:0.32509147999999999;stroke-linecap:round;stroke-linejoin:round;stroke-miterlimit:10;stroke-opacity:1;stroke-dasharray:none"
       id="path28" /><path
       d="m 311.79207,394.79649 0.24383,-1.54418 0.24381,-1.4629 0.24381,-1.46291 0.24383,-1.5442 0.24381,-1.46291 0.24381,-1.46291 0.24384,-1.54417 0.16254,-1.46291 0.24381,-1.54421 0.24383,-1.54417 0.24381,-1.54418 0.24381,-1.4629 0.16257,-1.54421 0.2438,-1.54418 0.16255,-1.54417 0.24383,-1.54421 0.24381,-1.54417 0.16254,-1.54418 0.16254,-1.54418 0.24383,-1.62547 0.16254,-1.54418 0.16254,-1.54418 0.16254,-1.62547 0.16257,-1.54418 0.16254,-1.54417 0.16254,-1.62548 0.16253,-1.62544 0.0813,-1.54418 0.16254,-1.62547 0.0813,-1.62545 0.0813,-1.54419 0.0813,-1.62546 0,-1.62546 0.0813,-1.62545 0,-1.62546 0.0813,-1.62546 0,-1.62546 0,-1.70673 -0.0813,-1.62546 0,-1.62545 -0.0813,-1.62545 0,-1.70673 -0.0813,-1.62546 -0.0813,-1.70673 -0.16254,-1.62546 -0.16257,-1.70673 -0.0813,-1.70673 -0.24381,-1.62546 -0.16254,-1.70673 -0.24384,-1.70673 -0.24381,-1.62546 -0.24381,-1.70673 -0.3251,-1.70673 -0.32508,-1.70673 -0.3251,-1.62546 -0.32508,-1.70673 -0.40638,-1.70673 -0.48764,-1.62545 -0.48762,-1.70673 -0.48765,-1.70674 -0.48764,-1.62545 -0.56891,-1.62546 -0.56889,-1.70673 -0.65019,-1.62546 -0.65018,-1.62546 -0.65018,-1.62546 -0.73146,-1.62544 -0.73145,-1.62547 -0.81275,-1.62545 -0.73145,-1.62547 -0.81273,-1.62545 -0.89399,-1.54418 -0.89402,-1.62546 -0.89399,-1.54418 -0.97527,-1.54419 -0.97529,-1.54419 -0.97526,-1.54418 -0.97529,-1.46291 -1.1378,-1.54418 -1.05656,-1.46291 -1.13783,-1.46292 -1.1378,-1.46291 -1.13783,-1.38164 -1.2191,-1.38164 -1.2191,-1.38163 -1.30034,-1.38164 -1.30037,-1.30037 -1.30036,-1.30037 -1.30037,-1.30036 -1.38164,-1.30037 -1.4629,-1.21909 -1.38164,-1.13783 -1.46294,-1.21908 -1.4629,-1.13783 -1.54418,-1.05655 -1.46291,-1.13781 -1.5442,-1.05654 -1.62545,-0.97528 -1.54418,-0.97528 -1.62547,-0.97527 -1.62545,-0.894 -1.62545,-0.89401 -1.62547,-0.81273 -1.70671,-0.81272 -1.62548,-0.81273 -1.70672,-0.73145 -1.70673,-0.73147 -1.70672,-0.65018 -1.78801,-0.65017 -1.70672,-0.65019 -1.70674,-0.56891 -1.78802,-0.56892 -1.70671,-0.48762 -1.78802,-0.48765 -1.78798,-0.40636 -1.78802,-0.48764 -1.70674,-0.32509 -1.78799,-0.32509 -1.78801,-0.32509 -1.78798,-0.24382 -1.78801,-0.24382 -1.78802,-0.24382 -1.70671,-0.16255 -1.78802,-0.0813 -1.78801,-0.0813 -1.78799,-0.0813 -1.70674,0 -1.78799,0 -1.78801,0.0813 -1.70674,0.0813 -1.78799,0.0813 -1.70674,0.16255 -1.70672,0.16255 -1.70674,0.24382 -1.70672,0.16254 -1.70674,0.3251 -1.70671,0.24381 -1.70675,0.32509 -1.62545,0.32509 -1.62547,0.3251 -1.70671,0.40636 -1.62548,0.40637 -1.62544,0.40636 -1.62545,0.40637 -1.62548,0.40636 -1.54417,0.48763 -1.62545,0.48765 -1.5442,0.48763 -1.54418,0.48764 -1.54418,0.5689 -1.5442,0.48765 -1.54418,0.5689 -1.54418,0.65018 -1.4629,0.56892 -1.54421,0.65018 -1.4629,0.65018 -1.46291,0.65019 -1.46291,0.73145 -1.46291,0.65018 -1.46292,0.73146 -1.38163,0.73145 -1.46291,0.73146 -1.38164,0.73146 -1.38163,0.73146 -1.38164,0.73145 -1.38164,0.81272 -1.38164,0.73146 -1.38165,0.81273 -1.38164,0.73146 -1.30035,0.81272 -1.38165,0.81274 -1.30036,0.73145 -1.30037,0.81273 -1.30037,0.81273 -1.38163,0.81273 -1.30037,0.81273 -1.30037,0.81273 -1.30037,0.81272 -1.21908,0.81274 -1.30037,0.81272 -1.30037,0.81273 -1.21909,0.81273 -1.30036,0.81272 -1.2191,0.81274 -1.30037,0.81272 -1.21908,0.81274 -1.2191,0.81272 -1.2191,0.81273 -1.21908,0.81273 -1.2191,0.81273 -1.21909,0.81273 -1.2191,0.81273 -1.21909,0.81272 -1.21909,0.81274 -1.2191,0.81272 -1.13782,0.81273 -1.21909,0.81273 -1.21909,0.81272 -1.13783,0.81274 -1.21908,0.81273 -1.13783,0.81273 -1.13781,0.81272 -1.2191,0.81273 -1.13782,0.81273 -1.13781,0.81273 -1.13783,0.81273 -1.13782,0.81273 -1.13781,0.81272 -1.13783,0.81274 -1.13782,0.81272 -1.13782,0.81274 -1.13782,0.81272 -1.13781,0.73146 -1.13783,0.81273 -1.05655,0.81272 -1.137821,0.81273 -1.13781,0.81273 -1.05656,0.73146 -1.13781,0.81272 -1.05655,0.81274 -1.13782,0.81272 -1.05655,0.73145 -1.05655,0.81274 -1.13782,0.81272 -1.05654,0.81273 -1.05655,0.73146 -1.05654,0.81273 -1.05655,0.73145 -1.05656,0.81274 -1.13781,0.81272 -1.05655,0.73146 -1.05654,0.81273 -0.97528,0.73146 -1.05654,0.81272 -1.05655,0.73145 -1.05655,0.81274 -1.05655,0.73146 -1.05655,0.81271 -0.97527,0.73146 -1.05655,0.81274 -1.05655,0.73145 -0.97527,0.81272 -1.05655,0.73146 -0.975274,0.73146 -1.056548,0.81273 -0.975274,0.73145 -1.056547,0.73146 -0.975275,0.81273 -0.975274,0.73145 -1.056548,0.73146 -0.975274,0.81272 -0.975265,0.73147 -0.975275,0.73146 -0.975274,0.73145 -0.975279,0.73145 -1.056543,0.81274 -0.975279,0.73145 -0.975274,0.73145 -0.975275,0.73146 4.632554,0.894 0.975279,-0.73146 0.893992,-0.65017 0.975275,-0.73147 0.975279,-0.73145 0.975274,-0.73146 0.975274,-0.73145 0.894006,-0.73145 0.975266,-0.73146 0.975274,-0.73146 0.975279,-0.73146 0.975275,-0.73145 0.975271,-0.73146 0.97528,-0.73145 0.97528,-0.73145 1.05654,-0.73147 0.97528,-0.73145 0.97527,-0.73146 0.97527,-0.73145 1.05655,-0.73146 0.97527,-0.73145 0.97527,-0.73145 1.05655,-0.73147 0.97527,-0.73146 0.97528,-0.73145 1.05654,-0.81272 0.97528,-0.73147 1.05655,-0.73145 1.05654,-0.73145 0.97528,-0.81273 1.05654,-0.73145 1.05656,-0.73147 0.97527,-0.73145 1.05655,-0.81273 1.05655,-0.73145 1.05655,-0.73145 1.05654,-0.81274 1.05655,-0.73145 1.05654,-0.73146 1.05655,-0.81273 1.05654,-0.73146 1.056561,-0.73145 1.05655,-0.81272 1.05655,-0.73146 1.13781,-0.81273 1.05654,-0.73146 1.05655,-0.81272 1.13783,-0.73147 1.05654,-0.81272 1.13782,-0.73146 1.05655,-0.81273 1.13783,-0.73146 1.05654,-0.81272 1.13782,-0.73145 1.13782,-0.81274 1.05655,-0.73146 1.13782,-0.81272 1.13781,-0.73145 1.13783,-0.81274 1.13782,-0.81272 1.13781,-0.73145 1.13783,-0.81274 1.13782,-0.73145 1.13782,-0.81273 1.13782,-0.81274 1.21909,-0.73145 1.13782,-0.81272 1.13782,-0.81274 1.2191,-0.73145 1.13781,-0.81272 1.2191,-0.73146 1.21908,-0.81274 1.13783,-0.81272 1.21909,-0.73145 1.2191,-0.81274 1.21909,-0.81272 1.21909,-0.73146 1.2191,-0.81273 1.21908,-0.73146 1.2191,-0.81272 1.2191,-0.73146 1.21909,-0.81273 1.30036,-0.73145 1.2191,-0.81273 1.21909,-0.73146 1.30036,-0.81273 1.30037,-0.73145 1.21909,-0.81273 1.30037,-0.73146 1.30037,-0.73146 1.30036,-0.73145 1.30037,-0.73146 1.30037,-0.81273 1.38164,-0.73145 1.30036,-0.73146 1.38164,-0.65018 1.30036,-0.73145 1.38165,-0.73146 1.38163,-0.65018 1.38164,-0.73146 1.38164,-0.65018 1.38164,-0.65018 1.38164,-0.65019 1.46292,-0.65018 1.38163,-0.56892 1.46291,-0.65017 1.46291,-0.56891 1.46291,-0.56892 1.4629,-0.48763 1.46291,-0.56891 1.46293,-0.48763 1.54418,-0.48765 1.46291,-0.48763 1.54418,-0.40636 1.5442,-0.40638 1.54417,-0.40636 1.54418,-0.40636 1.54418,-0.40636 1.62548,-0.32509 1.54417,-0.40637 1.62548,-0.32509 1.62544,-0.24382 1.54418,-0.32509 1.62547,-0.24382 1.62545,-0.24381 1.62544,-0.24382 1.70675,-0.16256 1.62545,-0.16254 1.62547,-0.0813 1.70671,-0.16255 1.70675,0 1.62545,-0.0813 1.70674,0 1.70672,0 1.70674,0.0813 1.62544,0.0813 1.70675,0.16255 1.70671,0.16254 1.70675,0.16256 1.70671,0.24382 1.70674,0.32508 1.70672,0.24382 1.70674,0.40636 1.62545,0.32509 1.70675,0.40638 1.70671,0.40636 1.70674,0.48763 1.62545,0.48764 1.70674,0.56891 1.62545,0.56891 1.70674,0.56891 1.62545,0.65019 1.62545,0.65018 1.62547,0.65017 1.62545,0.73147 1.62547,0.73146 1.62545,0.81272 1.54417,0.81273 1.54421,0.894 1.54418,0.81273 1.54417,0.97527 1.54418,0.894 1.46294,0.97528 1.4629,0.97527 1.46291,1.05655 1.46291,1.05655 1.38164,1.13781 1.38163,1.05656 1.38164,1.13782 1.38164,1.21909 1.30036,1.21909 1.30037,1.2191 1.2191,1.21908 1.30037,1.30037 1.2191,1.30037 1.1378,1.30037 1.13783,1.30037 1.13782,1.38163 1.13781,1.38164 1.05656,1.38164 1.05653,1.38164 1.05656,1.4629 0.97526,1.46292 0.97529,1.46291 0.89399,1.46291 0.894,1.46292 0.89402,1.46291 0.89399,1.54418 0.81272,1.46291 0.81275,1.54418 0.73146,1.54419 0.73145,1.54419 0.73145,1.54418 0.73146,1.54419 0.65018,1.62545 0.56892,1.54419 0.65018,1.54419 0.56889,1.62544 0.56891,1.54419 0.48765,1.62546 0.48764,1.54418 0.48762,1.62546 0.40638,1.62546 0.40637,1.62546 0.40635,1.54418 0.3251,1.62546 0.32508,1.62546 0.32511,1.62546 0.24381,1.62545 0.24381,1.62545 0.24383,1.62547 0.16254,1.54418 0.16254,1.62545 0.16254,1.62546 0.16257,1.62546 0.0813,1.54419 0.16255,1.62545 0.0813,1.62546 0.0813,1.54419 0,1.62546 0.0813,1.54418 0,1.62546 0,1.54418 0.0813,1.62545 -0.0813,1.5442 0,1.54417 0,1.54419 -0.0813,1.54418 0,1.54419 -0.0813,1.62546 -0.0813,1.54418 -0.16255,1.4629 -0.0813,1.54421 -0.0813,1.54417 -0.16256,1.54418 -0.16254,1.54418 -0.16254,1.5442 -0.0813,1.46291 -0.16254,1.54418 -0.24383,1.4629 -0.16255,1.54421 -0.16253,1.4629 -0.16257,1.54418 -0.24381,1.46291 -0.16254,1.5442 -0.16254,1.46291 -0.24383,1.46291 -0.16254,1.46291 -0.24381,1.4629 -0.16256,1.46291 -0.24381,1.46291 -0.24381,1.46293 -0.16257,1.46291 -0.24381,1.4629 -0.24381,1.46291 -0.24383,1.46291 -0.16254,1.38164 -0.24381,1.4629 -0.24384,1.46294 -0.24381,1.38164 -0.24381,1.46291 -0.16256,1.38163 -0.24381,1.46291 -0.24381,1.38164 -0.24384,1.46291 -0.2438,1.38162 -0.24381,1.38164 -0.24384,1.38164 -0.24381,1.46295 -0.24381,1.38164 -0.16256,1.38164 -0.24381,1.38164 -0.24381,1.38164 -0.24384,1.38164 -0.2438,1.38159 -0.24381,1.38164 -0.24384,1.30041 -0.24381,1.38164 -0.24384,1.38164 -0.2438,1.38164 -0.24381,1.30036 -0.24384,1.38164 -0.24381,1.38164 -0.24381,1.30036 -0.24383,1.38164 -0.24381,1.30037 -0.24381,1.38164 -0.24384,1.30036 -0.24381,1.38164 -0.24383,1.30037 -0.24381,1.30036 -0.24381,1.30033 -0.24383,1.38168 -0.24381,1.30032 -0.24381,1.30041 -0.24384,1.30037 -0.24381,1.30036 -0.24381,1.30037 -0.24383,1.30036 -0.24381,1.30037 -0.24381,1.30037 -0.3251,1.30036 -0.24381,1.30037 -0.24384,1.30036 -0.24381,1.21905 -0.24381,1.30041 -0.24383,1.30037 -0.24381,1.30036 -0.24381,1.2191 -0.24384,1.30036 -0.24381,1.2191 -0.24383,1.30036 -0.24381,1.21905 -0.24381,1.30041 -0.24384,1.21909 -0.24381,1.30037 -0.2438,1.21909 -0.24384,1.30037 -0.24381,1.21909 -0.24381,1.2191 -0.24383,1.21909 -0.24381,1.30036 -0.24384,1.21908 -0.24381,1.2191 -0.24381,1.21909 -0.24383,1.21909 -0.24381,1.2191 -0.24381,1.21909 -0.24384,1.21909 -0.16253,1.2191 -0.24381,1.21909 -0.24384,1.21909 -0.24381,1.21909 -0.24381,1.2191 -0.24383,1.21909 -0.24381,1.13782 -0.24381,1.21909 -0.24384,1.2191 -0.24381,1.13777 -0.24383,1.21914 -0.24381,1.21909 -0.24381,1.13782 -0.24383,1.2191 -0.24381,1.13782 -0.24381,1.21909 -0.24384,1.13782 -0.24381,1.21909 -0.24381,1.13782 -0.16256,1.2191 -0.24381,1.13782 -0.24381,1.13782 -0.24384,1.21909 -0.24381,1.13782 -0.2438,1.13782 -0.24384,1.13782 -0.24381,1.21909 -0.24384,1.13782 -0.24381,1.13782 -0.16253,1.13782 -0.24381,1.13782 -0.24384,1.13782 2.84455,5.6891 0.24383,-1.13782 0.24381,-1.21909 0.24381,-1.13782 0.24384,-1.21909 0.24381,-1.13782 0.24383,-1.2191 0.24381,-1.13782 0.24381,-1.21909 0.24383,-1.21909 0.24381,-1.21909 0.24381,-1.13782 0.24384,-1.2191 0.24381,-1.21909 0.24381,-1.21909 0.24383,-1.2191 0.24381,-1.13782 0.24381,-1.21909 0.24384,-1.21909 0.24381,-1.2191 0.3251,-1.21909 0.24381,-1.21909 0.24381,-1.2191 0.24383,-1.30036 0.24381,-1.21909 0.24381,-1.2191 0.24384,-1.21909 0.24381,-1.21909 0.24383,-1.30037 0.24381,-1.21909 0.24381,-1.2191 0.3251,-1.30036 0.24381,-1.21909 0.24381,-1.30037 0.24384,-1.21909 0.24381,-1.2191 0.24384,-1.30036 0.2438,-1.30037 0.24381,-1.21909 0.32511,-1.30041 0.2438,-1.30032 0.24381,-1.2191 0.24384,-1.30035 0.24381,-1.30036 0.24384,-1.30037 0.32508,-1.21909 0.2438,-1.30037 0.24384,-1.30036 0.24381,-1.30042 0.24381,-1.30032 0.24383,-1.30036 0.24381,-1.30037 0.32511,-1.30036 0.24381,-1.38164 0.24381,-1.30037 0.24383,-1.30036 0.24381,-1.30037 0.3251,-1.30037 0.24381,-1.38164 0.24381,-1.30036 0.24384,-1.38164 0.24381,-1.30037 0.24381,-1.30036 0.3251,-1.38164 0.24381,-1.38164 0.24384,-1.30037 0.2438,-1.38163 0.24381,-1.30037 0.32511,-1.38164 0.24381,-1.38164 0.24384,-1.38164 0.24381,-1.38164 0.2438,-1.30036 0.24384,-1.38164 0.32508,-1.38164 0.2438,-1.38164 0.24384,-1.38164 0.24381,-1.38163 0.24384,-1.38164 0.24381,-1.46292 0.32507,-1.38163 0.24384,-1.38164 0.24381,-1.38164 0.24381,-1.46296 0.24383,-1.38164 0.24381,-1.38159 0.32511,-1.46291 0.24381,-1.38169 0.24381,-1.46291 0.24383,-1.46291 0.24381,-1.38164 0.24381,-1.46286 0.24383,-1.46292 0.24381,-1.38168 0.32511,-1.46291 0.24381,-1.46291 0.24381,-1.46292 0.24383,-1.46288 0.24381,-1.46291 0.24381,-1.4629 0.24384,-1.46294 0.24381,-1.46291"
       style="fill:#4d75a2;fill-opacity:0.4642857;stroke:#000000;stroke-width:0.32509147999999999;stroke-linecap:round;stroke-linejoin:round;stroke-miterlimit:10;stroke-opacity:1;stroke-dasharray:none"
       id="path30" /><path
       d="m 314.42209,312.52718 0,-1.70671 0,-1.78801 -0.0813,-1.78802 0,-1.70671 -0.0813,-1.78801 -0.16254,-1.78799 -0.0813,-1.78801 -0.16254,-1.70675 -0.16256,-1.78798 -0.16254,-1.78801 -0.16254,-1.78802 -0.24384,-1.78798 -0.24381,-1.78802 -0.32508,-1.78798 -0.24383,-1.78801 -0.40635,-1.78802 -0.3251,-1.78799 -0.40635,-1.78801 -0.40638,-1.78801 -0.40637,-1.78799 -0.48762,-1.78801 -0.48765,-1.78801 -0.56891,-1.78799 -0.48764,-1.78801 -0.56889,-1.78801 -0.65019,-1.78799 -0.56891,-1.78801 -0.65019,-1.78799 -0.73145,-1.70674 -0.73145,-1.78801 -0.73145,-1.70672 -0.73149,-1.78801 -0.81272,-1.70672 -0.81272,-1.78801 -0.81273,-1.70672 -0.89399,-1.70674 -0.89402,-1.70672 -0.97526,-1.62547 -0.97529,-1.70672 -0.97527,-1.70674 -0.97528,-1.62545 -1.05654,-1.62547 -1.13782,-1.62545 -1.05654,-1.62547 -1.13783,-1.54418 -1.21909,-1.54418 -1.1378,-1.54417 -1.2191,-1.5442 -1.30037,-1.46291 -1.30037,-1.54418 -1.30037,-1.46291 -1.30037,-1.38163 -1.38163,-1.46291 -1.38164,-1.38164 -1.38164,-1.30037 -1.46291,-1.38163 -1.46291,-1.30037 -1.46293,-1.30037 -1.46291,-1.2191 -1.54417,-1.2191 -1.54418,-1.2191 -1.54421,-1.1378 -1.54417,-1.13783 -1.62545,-1.13783 -1.5442,-1.1378 -1.62545,-1.05656 -1.62544,-0.97526 -1.70675,-1.05656 -1.62545,-0.97526 -1.70673,-0.89402 -1.62545,-0.89399 -1.70673,-0.894 -1.70673,-0.89402 -1.70673,-0.81272 -1.70673,-0.81273 -1.70674,-0.73145 -1.78801,-0.73145 -1.70672,-0.73145 -1.78801,-0.65019 -1.70673,-0.65018 -1.78799,-0.65019 -1.78802,-0.56891 -1.788,-0.56892 -1.70673,-0.48764 -1.78799,-0.48763 -1.78802,-0.40636 -1.78799,-0.40636 -1.78801,-0.40636 -1.788,-0.40637 -1.78801,-0.32509 -1.788,-0.24382 -1.788,-0.3251 -1.78801,-0.24382 -1.788,-0.24382 -1.788,-0.16254 -1.70673,-0.16254 -1.788,-0.16255 -1.78801,-0.16254 -1.70673,-0.16255 -1.788,-0.0813 -1.70673,-0.0813 -1.788,-0.0813 -1.70673,-0.0813 -1.70673,0 -1.78801,-0.0813 -1.70673,0 -1.70673,0.0813 -1.70673,0 -1.70673,0.0813 -1.70673,0.0813 -1.70673,0.0813 -1.62546,0.16254 -1.70673,0.0813 -1.70673,0.16254 -1.62546,0.16255 -1.70673,0.16254 -1.62545,0.24383 -1.70674,0.16253 -1.62544,0.24382 -1.62547,0.24383 -1.62545,0.24381 -1.62546,0.24382 -1.62546,0.24382 -1.62545,0.24382 -1.62546,0.32508 -1.62546,0.24382 -1.54418,0.3251 -1.62546,0.24382 -1.62546,0.32509 -1.54419,0.24381 -1.54417,0.3251 -1.62547,0.32509 -1.54418,0.3251 -1.54418,0.32508 -1.54419,0.24384 -1.54418,0.32507 -1.54419,0.32511 -1.54418,0.32508 -1.54419,0.32508 -1.54418,0.3251 -1.54419,0.40638 -1.46291,0.32508 -1.54418,0.3251 -1.46291,0.32508 -1.54419,0.32508 -1.46291,0.3251 -1.46291,0.32508 -1.54419,0.40638 -1.46291,0.3251 -1.46291,0.32508 -1.46291,0.32508 -1.46292,0.40638 -1.4629,0.3251 -1.46292,0.32508 -1.4629,0.3251 -1.46292,0.40635 -1.38164,0.32511 -1.46291,0.32508 -1.46292,0.40637 -1.38163,0.32508 -1.46291,0.3251 -1.38164,0.40636 -1.46291,0.3251 -1.38164,0.32508 -1.381627,0.40637 -1.38165,0.32508 -1.46291,0.3251 -1.381634,0.40636 -1.381648,0.3251 -1.381634,0.32508 -1.381639,0.40637 -1.381639,0.32508 -1.381638,0.32511 -1.300366,0.40635 -1.381639,0.3251 -1.381639,0.40638 -1.381634,0.32508 -1.30037,0.3251 -1.381639,0.40635 -1.300366,0.3251 -1.381639,0.32508 -1.300366,0.40638 -1.381639,0.32508 -1.300365,0.3251 -1.300366,0.40635 -1.381639,0.32511 -1.300366,0.32507 -1.30037,0.40638 -1.300362,0.32508 -1.300366,0.3251 -1.30037,0.40635 -1.300362,0.32511 -1.300367,0.32508 -1.30037,0.40637 -1.300362,0.32508 -1.219097,0.32511 -1.300366,0.32507 -1.300361,0.40638 -1.300371,0.32508 -1.219088,0.3251 -1.300371,0.40638 -1.219093,0.32508 -1.300361,0.32507 -1.219093,0.32511 -1.300371,0.40638 -1.219093,0.32507 -1.219088,0.32511 -1.300366,0.40635 -1.219093,0.3251 -1.219098,0.32508 -1.219088,0.32511 -1.219093,0.32508 -1.219093,0.40637 -1.219093,0.32508 -1.219093,0.3251 -1.219093,0.32509 5.364005,4.47001 5.445286,4.46999 1.13782,-0.32508 1.137821,-0.3251 1.13782,-0.24381 1.137815,-0.32511 1.137821,-0.32507 1.13782,-0.32508 1.137824,-0.24384 1.137821,-0.32508 1.137815,-0.3251 1.219098,-0.32508 1.137815,-0.24384 1.137825,-0.32507 1.137816,-0.32511 1.219097,-0.32508 1.13782,-0.24381 1.21909,-0.3251 1.137825,-0.32508 1.137816,-0.32511 1.219097,-0.24381 1.137816,-0.3251 1.219093,-0.32508 1.219097,-0.32511 1.137821,-0.32507 1.219093,-0.24384 1.219093,-0.32508 1.219093,-0.32508 1.13782,-0.3251 1.219093,-0.24381 1.219093,-0.32511 1.219093,-0.32507 1.219093,-0.32511 1.219088,-0.32508 1.219098,-0.24383 1.219093,-0.32509 1.219093,-0.3251 1.219093,-0.32508 1.300366,-0.3251 1.219093,-0.24381 1.219088,-0.32508 1.219103,-0.32511 1.300361,-0.32507 1.219088,-0.24384 1.300371,-0.32508 1.219093,-0.3251 1.300366,-0.32508 1.219088,-0.32511 1.30037,-0.24381 1.300367,-0.32507 1.21909,-0.32511 1.30036,-0.32508 1.30037,-0.24383 1.30037,-0.32509 1.30036,-0.3251 1.30037,-0.32508 1.30036,-0.24384 1.30038,-0.32507 1.30036,-0.32511 1.30036,-0.24381 1.30037,-0.32508 1.30036,-0.3251 1.30037,-0.32508 1.38164,-0.24384 1.30037,-0.32507 1.30036,-0.32511 1.38164,-0.24381 1.30037,-0.32508 1.38163,-0.24383 1.38165,-0.32508 1.30036,-0.32511 1.38163,-0.24381 1.38165,-0.3251 1.30036,-0.24381 1.38164,-0.32508 1.38164,-0.24384 1.38164,-0.32507 1.38164,-0.24384 1.38164,-0.24381 1.38164,-0.3251 1.4629,-0.24381 1.38165,-0.32508 1.38164,-0.24384 1.38164,-0.24381 1.4629,-0.2438 1.38164,-0.24384 1.46291,-0.32508 1.38164,-0.24383 1.46292,-0.24381 1.46291,-0.24381 1.38163,-0.24384 1.46292,-0.16254 1.46291,-0.24381 1.46291,-0.24383 1.46291,-0.16254 1.46292,-0.24381 1.46291,-0.16257 1.4629,-0.24381 1.54419,-0.16253 1.46291,-0.16255 1.46292,-0.16256 1.54418,-0.16254 1.46292,-0.0813 1.54418,-0.16254 1.4629,-0.0813 1.54419,-0.0813 1.54419,-0.0813 1.46291,-0.0813 1.54418,0 1.54419,-0.0813 1.54419,0 1.54418,0 1.54419,0.0813 1.54417,0.0813 1.54419,0.0813 1.54418,0.0813 1.54419,0.0813 1.54418,0.0813 1.54419,0.16254 1.62546,0.16254 1.54417,0.16256 1.54419,0.16255 1.62547,0.16253 1.54417,0.24381 1.54419,0.24384 1.62546,0.24381 1.54418,0.3251 1.62546,0.32508 1.54419,0.32511 1.62545,0.32507 1.54419,0.40638 1.62546,0.40635 1.54417,0.40637 1.62547,0.48765 1.54418,0.48762 1.54418,0.48764 1.62546,0.56891 1.54419,0.56892 1.54418,0.56891 1.54419,0.65019 1.54418,0.65018 1.54419,0.73145 1.46291,0.65019 1.54418,0.73145 1.54418,0.81273 1.46292,0.81272 1.46291,0.81273 1.54418,0.81272 1.46292,0.89401 1.46291,0.81273 1.4629,0.97526 1.38164,0.89402 1.46292,0.97526 1.38164,0.97529 1.38164,1.05654 1.46292,0.97528 1.30037,1.05654 1.38163,1.05656 1.38164,1.1378 1.30037,1.13783 1.30034,1.13783 1.30037,1.1378 1.2191,1.2191 1.30036,1.2191 1.2191,1.21909 1.2191,1.30037 1.1378,1.2191 1.2191,1.30034 1.13783,1.30037 1.13783,1.38164 1.05653,1.30037 1.05656,1.38163 1.05653,1.38164 1.05656,1.46293 0.97527,1.38164 0.97528,1.46291 0.97526,1.38164 0.894,1.46291 0.89402,1.4629 0.89399,1.54418 0.81272,1.46293 0.81273,1.54418 0.81275,1.46291 0.81272,1.54417 0.73145,1.54421 0.73146,1.54418 0.73145,1.54417 0.65019,1.54418 0.65018,1.54421 0.65018,1.54417 0.65019,1.54418 0.56891,1.62547 0.56892,1.54418 0.48762,1.54418 0.56891,1.62547 0.48764,1.54417 0.48765,1.62545 0.40635,1.5442 0.48764,1.62545 0.40638,1.54418 0.32508,1.62547 0.40637,1.54418 0.32508,1.62545 0.3251,1.62547 0.24381,1.54418 0.32508,1.62544 0.24384,1.54421 0.16254,1.62544 0.24381,1.54418 0.16256,1.62547 0.16254,1.62545 0.16254,1.54418 0.0813,1.62547 0.16254,1.54418 0.0813,1.54417 0.0813,1.62548 0.0813,1.54417 0,1.54418 0.0813,1.62548 0,1.54418 0,1.54417 0,1.5442 0,1.54418 -0.0813,1.54418 0,1.54417 0,1.54421 -0.0813,1.54418 -0.0813,1.4629 -0.0813,1.54418 -0.0813,1.5442 -0.0813,1.46291 -0.0813,1.54418 -0.16254,1.54418 -0.0813,1.46293 -0.16254,1.54417 -0.0813,1.46292 -0.16254,1.4629 -0.16254,1.54421 -0.16254,1.4629 -0.16257,1.46291 -0.16254,1.46291 -0.16254,1.54417 -0.16253,1.46291 -0.24384,1.46293 -0.16254,1.46291 -0.16254,1.46291 -0.24381,1.46291 -0.16257,1.38163 -0.16253,1.46291 -0.24381,1.46291 -0.16257,1.46293 -0.24381,1.38164 -0.16254,1.46291 -0.24383,1.46291 -0.16254,1.38163 -0.24381,1.46291 -0.24381,1.38164 -0.16257,1.46291 -0.24381,1.38164 -0.2438,1.38163 -0.16257,1.46293 -0.24381,1.38164 -0.24381,1.38164 -0.16256,1.38164 -0.24381,1.38164 -0.24381,1.38163 -0.16257,1.38164 -0.24381,1.38164 -0.24381,1.38164 -0.16256,1.38163 -0.24381,1.38164 -0.24381,1.38164 -0.24384,1.30036 -0.16254,1.38164 -0.24381,1.38164 -0.24383,1.38164 -0.24381,1.30037 -0.16254,1.38163 -0.24384,1.30037 -0.2438,1.38164 -0.24381,1.30037 -0.24384,1.38163 -0.16254,1.30037 -0.24381,1.30037 -0.24383,1.38163 -0.24381,1.30037 -0.16254,1.30037 -0.24384,1.30036 -0.2438,1.30037 -0.24381,1.38164 -0.24384,1.30036 -0.16254,1.30037 -0.24381,1.30036 -0.24383,1.30037 -0.24381,1.30037 -0.24381,1.30036 -0.16257,1.21905 -0.2438,1.30041 -0.24381,1.30037 -0.24384,1.30036 -0.16254,1.2191 -0.24381,1.30036 -0.24383,1.30037 -0.24381,1.21909 -0.24381,1.30037 -0.16257,1.30036 -0.24381,1.2191 -0.24381,1.30036 -0.24383,1.21909 -0.16254,1.30037 -0.24381,1.21909 -0.24384,1.21905 -0.24381,1.30037 -0.2438,1.21914 -0.16257,1.21909 -0.24381,1.21909 -0.24381,1.30037 -0.24383,1.21909 -0.16255,1.21909 -0.24381,1.2191 -0.24383,1.21909 -0.24381,1.21909 -0.16254,1.2191 -0.24383,1.21909 -0.24381,1.21909 -0.24381,1.21909 -0.16257,1.2191 -0.24381,1.21909 -0.24381,1.21909 -0.16253,1.13782 -0.24384,1.2191 -0.24381,1.21908 -0.24384,1.21904 -0.16253,1.13787 -0.24381,1.21909 -0.24384,1.13787 -0.16254,1.21905 -0.24381,1.21909 -0.24381,1.13782 -0.24383,1.21914 -0.16254,1.13777 -0.24381,1.2191 -0.24383,1.13782 -0.16255,1.13777 -0.24381,1.21914 -0.24383,1.13782 -0.16254,1.13786 -0.24381,1.21905 -0.24384,1.13782 -0.16253,1.13782 -0.24381,1.13778 -0.24384,1.13786 -0.16253,1.2191 -0.24381,1.13786 -0.24384,1.13778 -0.16254,1.13782 -0.24381,1.13782 -0.24383,1.13782 -0.16255,1.13782 -0.2438,1.13782 -0.24384,1.13777 -0.16254,1.13787 4.87637,7.96474 4.79509,7.88342 0.24384,-1.21905 0.24381,-1.21909 0.24384,-1.21909 0.2438,-1.2191 0.24381,-1.21913 0.24384,-1.21905 0.24381,-1.21909 0.24381,-1.30037 0.24383,-1.21909 0.24381,-1.2191 0.32511,-1.21904 0.2438,-1.21914 0.24381,-1.30037 0.24384,-1.21909 0.24381,-1.30037 0.24381,-1.21909 0.24384,-1.21909 0.24381,-1.30037 0.2438,-1.21909 0.24384,-1.30037 0.24381,-1.21909 0.24383,-1.30037 0.24381,-1.30036 0.32508,-1.2191 0.24384,-1.30036 0.24381,-1.30037 0.2438,-1.30036 0.24384,-1.2191 0.24381,-1.30036 0.24384,-1.30037 0.2438,-1.30036 0.32508,-1.30037 0.24384,-1.30037 0.24381,-1.30036 0.2438,-1.30037 0.24384,-1.30036 0.24381,-1.30037 0.24384,-1.30037 0.32507,-1.38159 0.24381,-1.30041 0.24384,-1.30035 0.24381,-1.30037 0.24381,-1.38164 0.24383,-1.30036 0.32508,-1.38164 0.24384,-1.30037 0.24381,-1.38164 0.24381,-1.30036 0.24383,-1.38164 0.32508,-1.30037 0.24384,-1.38164 0.2438,-1.38164 0.24381,-1.30036 0.32511,-1.38164 0.24381,-1.38164 0.24381,-1.38164 0.24383,-1.38164 0.24381,-1.38163 0.32511,-1.38164 0.24381,-1.38164 0.24381,-1.38164 0.24383,-1.38164 0.32508,-1.38159 0.24383,-1.38169 0.24381,-1.38159 0.24381,-1.38169 0.32511,-1.46291 0.24381,-1.38164 0.24383,-1.46291 0.24381,-1.38164 0.32508,-1.38163 0.24384,-1.46292 0.24381,-1.38163 0.2438,-1.46292 0.32511,-1.46291 0.24381,-1.38164 0.24383,-1.46291 0.32508,-1.46291 0.24381,-1.46291 0.24384,-1.46291 0.24381,-1.46292 0.3251,-1.38163 0.24381,-1.46292 0.24381,-1.54418 0.24383,-1.46291 0.32509,-1.46291 0.24383,-1.46292 0.24381,-1.46291 0.24381,-1.46291 0.3251,-1.54418 0.24381,-1.46291 0.24384,-1.54419 0.24381,-1.46291 0.32508,-1.54418 0.24383,-1.4629 0.24381,-1.54421 0.24381,-1.54417 0.3251,-1.46291 0.24381,-1.54418 0.24384,-1.5442 0.24381,-1.54418 0.24381,-1.54418 0.3251,-1.5442 0.24381,-1.54417 0.24384,-1.54418 0.2438,-1.54418 0.24381,-1.5442 0.24384,-1.62545 0.24381,-1.54418 0.24381,-1.5442 0.24384,-1.62545 0.32507,-1.54417 0.24384,-1.62548 0.16254,-1.54417 0.24381,-1.62545 0.24383,-1.62547 0.24381,-1.54418 0.24381,-1.62545 0.24384,-1.62547 0.2438,-1.62545 0.16255,-1.62547 0.24383,-1.62545 0.24381,-1.62544 0.16254,-1.70675 0.24384,-1.62545 0.16253,-1.62547 0.16254,-1.70671 0.16254,-1.62548 0.24384,-1.62545 0.16254,-1.70674 0.0813,-1.70671 0.16254,-1.62548 0.16253,-1.70672 0.0813,-1.70674 0.0813,-1.62544 0.16254,-1.70672 0.0813,-1.70674 0.0813,-1.70675 0,-1.70671 0.0813,-1.70675 0.0813,-1.78798 0,-1.70675 0,-1.70671 0,-1.78802"
       style="fill:#4d75a2;fill-opacity:0.4642857;stroke:#000000;stroke-width:0.32509147999999999;stroke-linecap:round;stroke-linejoin:round;stroke-miterlimit:10;stroke-opacity:1;stroke-dasharray:none"
       id="path32" /><path
       id="path38"
       style="fill:#4d75a2;fill-opacity:0.4642857;stroke:#000000;stroke-width:0.32509147999999999;stroke-linecap:round;stroke-linejoin:round;stroke-miterlimit:10;stroke-opacity:1;stroke-dasharray:none"
       d="m 275.76257,367.03773 0,1.54417 0,1.54418 0,1.46291 0,1.5442 -0.0813,1.54418 0,1.4629 -0.0813,1.54418 0,1.54421 -0.0813,1.4629 -0.0813,1.46291 -0.0813,1.54418 -0.0813,1.4629 -0.0813,1.46294 -0.0813,1.54418 -0.0813,1.46291 -0.0813,1.4629 -0.16254,1.46291 -0.0813,1.46293 -0.0813,1.46291 -0.16254,1.46291 -0.0813,1.46291 -0.16256,1.4629 -0.16255,1.38164 -0.0813,1.46291 -0.16254,1.46293 -0.16254,1.38164 -0.16257,1.46292 -0.0813,1.46291 -0.16254,1.38164 -0.16254,1.46291 -0.16256,1.38159 -0.16254,1.38164 -0.16254,1.46291 -0.16254,1.38164 -0.16257,1.38164 -0.16253,1.38164 -0.16255,1.38164 -0.24381,1.46296 -0.16256,1.38163 -0.16254,1.38164 -0.16254,1.38164 -0.16254,1.38164 -0.24383,1.30037 -0.16254,1.38164 -0.16254,1.38163 -0.24384,1.38164 -0.16254,1.38164 -0.16254,1.30037 -0.24381,1.38164 -0.16256,1.30036 -0.24381,1.38164 -0.16254,1.30037 -0.16254,1.38164 -0.24383,1.30036 -0.16255,1.38164 -0.24381,1.30037 -0.16256,1.30036 -0.24381,1.38164 -0.16254,1.30037 -0.24383,1.30036 -0.16254,1.30037 -0.24381,1.30036 -0.24384,1.38164 -0.16254,1.30037 -0.24381,1.30036 -0.16254,1.30037 -0.24383,1.21905 -0.24381,1.30041 -0.16254,1.30037 -0.24384,1.30036 -0.24381,1.30037 -0.16253,1.30036 -0.24384,1.2191 -0.24381,1.30036 -0.16254,1.30041 -0.24383,1.21905 -0.24381,1.30037 -0.16254,1.21909 -0.24384,1.30037 -0.24381,1.21909 -0.16254,1.30036 -0.24383,1.2191 -0.24381,1.30035 -0.24381,1.21909 -0.16257,1.2191 -0.24381,1.30036 -0.24381,1.2191 -0.16253,0.73145 -0.65018,-0.48764 -0.9753,-0.73145 -1.05653,-0.81273 -0.97529,-0.73146 -0.97526,-0.81268 -0.97529,-0.73146 -1.05655,-0.73154 -0.97527,-0.81269 -0.97527,-0.73144 -1.05655,-0.81273 -0.97527,-0.81273 -1.05655,-0.73145 -0.97527,-0.81273 -1.05655,-0.81273 -0.97527,-0.73145 -1.05656,-0.81273 -0.97526,-0.81273 -1.05656,-0.81269 -0.97526,-0.81277 -1.05656,-0.81273 -0.97527,-0.81273 -1.05655,-0.81273 -1.05655,-0.81268 -0.97527,-0.81277 -1.05655,-0.81273 -1.05655,-0.81273 -1.05654,-0.81273 -0.97528,-0.894 -1.05654,-0.81273 -1.05655,-0.81273 -1.05655,-0.894 -0.97527,-0.81273 -1.05655,-0.894 -1.05654,-0.81273 -1.05655,-0.894 -1.05655,-0.894 -1.05655,-0.81273 -1.05655,-0.894 -1.05654,-0.894 -1.05655,-0.894 -1.05655,-0.89401 -1.05654,-0.89395 -1.05655,-0.89405 -1.05654,-0.894 -1.05656,-0.894 -1.05655,-0.894 -1.05655,-0.89401 -1.05654,-0.97527 -1.05655,-0.894 -1.05654,-0.97528 -1.05655,-0.894 -1.05654,-0.97527 -1.13783,-0.894 -1.05654,-0.97528 -1.05655,-0.97527 -1.05655,-0.97528 -1.05654,-0.97527 -1.05655,-0.97523 -1.05655,-0.97532 -1.05655,-0.97527 -1.13782,-0.97528 -1.05655,-0.97527 -1.05654,-1.05655 -1.05655,-0.97527 -1.05654,-1.05655 -1.05656,-0.97528 -1.05655,-1.05654 -1.05654,-1.05655 -1.05655,-1.05655 -1.05654,-1.05655 -1.05655,-1.05659 -1.05654,-1.0565 -1.05655,-1.05659 -1.05656,-1.13778 -1.05655,-1.05659 -1.05654,-1.13782 -1.05655,-1.13778 -0.97527,-1.13782 -1.05655,-1.13786 -0.97528,-1.13778 -1.05654,-1.21909 -0.97528,-1.13786 -1.05654,-1.2191 -0.97528,-1.21904 -0.97527,-1.2191 -0.97528,-1.21909 -0.894,-1.21914 -0.97527,-1.30035 -0.89401,-1.21907 -0.97527,-1.30037 -0.89399,-1.30036 -0.81274,-1.38164 -0.89399,-1.30037 -0.81274,-1.38164 -0.81272,-1.38164 -0.81273,-1.38163 -0.73146,-1.46294 -0.73146,-1.46291 -0.73145,-1.4629 -0.65018,-1.46291 -0.65019,-1.46291 -0.5689,-1.54417 -0.56892,-1.46294 -0.56891,-1.54417 -0.5689,-1.62545 -0.48764,-1.5442 -0.48764,-1.54418 -0.48764,-1.62545 -0.40636,-1.62547 -0.40636,-1.62545 -0.40637,-1.62544 -0.32509,-1.62548 -0.32509,-1.70672 -0.24382,-1.62547 -0.24383,-1.70671 -0.24381,-1.70675 -0.16255,-1.70672 -0.16254,-1.70674 -0.0813,-1.70672 0,-1.70673 0,-1.70672 0,-1.78802 0.0813,-1.70674 0.16254,-1.78799 0.24383,-1.70674 0.24381,-1.70671 0.24381,-1.78802 0.40637,-1.70671 0.32509,-1.70675 0.48765,-1.70671 0.48763,-1.70675 0.56891,-1.70674 0.65018,-1.70672 0.65019,-1.70674 0.65018,-1.62544 0.81273,-1.62545 0.81272,-1.62547 0.81273,-1.62545 0.89401,-1.54418 0.97527,-1.5442 0.97527,-1.54418 1.05655,-1.46291 1.05655,-1.54417 1.13782,-1.38164 1.13782,-1.46294 1.21909,-1.38163 1.30037,-1.30037 1.21909,-1.38164 1.38164,-1.21907 1.38163,-1.2191 1.38165,-1.2191 1.46291,-1.13783 1.46291,-1.1378 1.54419,-1.05656 1.54418,-1.05656 1.54418,-0.97526 1.62547,-0.89399 1.62545,-0.89402 1.62545,-0.81272 1.70673,-0.73146 1.62546,-0.73145 1.788,-0.73146 1.70673,-0.56891 1.78802,-0.56892 1.70673,-0.48761 1.78799,-0.48765 1.788,-0.40637 1.78802,-0.32508 1.86927,-0.24384 1.788,-0.24381 1.78801,-0.2438 1.788,-0.0813 1.86927,-0.0813 1.78801,0 1.788,0 1.788,0.0813 1.78801,0.16253 1.788,0.16254 1.788,0.24381 1.788,0.32511 1.70673,0.32508 1.70673,0.40637 1.70674,0.48765 1.70673,0.48762 1.70673,0.48764 1.62545,0.65019 1.62546,0.65018 1.62546,0.65018 1.54419,0.73146 1.54418,0.81272 1.4629,0.89402 1.54419,0.89399 1.38164,0.894 1.46291,0.97528 1.30036,1.05654 1.38164,1.05655 1.30037,1.13781 1.2191,1.13783 1.21908,1.13782 1.13783,1.2191 1.13782,1.30037 1.13783,1.21907 1.05653,1.38164 0.97529,1.30037 0.97526,1.30037 0.97529,1.38163 0.89399,1.38164 0.894,1.46291 0.81272,1.38166 0.81275,1.46291 0.81272,1.38164 0.73146,1.46291 0.73145,1.4629 0.65018,1.46291 0.73146,1.46291 0.56891,1.5442 0.65019,1.46291 0.56891,1.46291 0.48762,1.54418 0.48764,1.5442 0.48765,1.54417 0.40635,1.54418 0.40637,1.54418 0.32511,1.5442 0.32508,1.54418 0.24381,1.54418 0.24383,1.54417 0.24381,1.5442 0.16254,1.62545 0.16257,1.54418 0.16253,1.54421 0.16255,1.54417 0.0813,1.54418 0.0813,1.5442 0.0813,1.54418 0.0813,1.54417 0,1.54418 0.0813,1.54421 m 2.19436,-8.12729 -0.0813,-1.62548 -0.16254,-1.62544 -0.16257,-1.62547 -0.16253,-1.62545 -0.16254,-1.62545 -0.24384,-1.62547 -0.24381,-1.62545 -0.32508,-1.62547 -0.24383,-1.70672 -0.40635,-1.62544 -0.40637,-1.62548 -0.40638,-1.54417 -0.40635,-1.62548 -0.56891,-1.62544 -0.56892,-1.62545 -0.56891,-1.5442 -0.65019,-1.54418 -0.65018,-1.54418 -0.65019,-1.62547 -0.73145,-1.54418 -0.73145,-1.46291 -0.81272,-1.54417 -0.81273,-1.54421 -0.89399,-1.46291 -0.81275,-1.54417 -0.97527,-1.46291 -0.89399,-1.46291 -0.97529,-1.4629 -1.05653,-1.38167 -1.05656,-1.46291 -1.13783,-1.38163 -1.1378,-1.30037 -1.13783,-1.38164 -1.2191,-1.21907 -1.30035,-1.30037 -1.30037,-1.2191 -1.38164,-1.13783 -1.38164,-1.13783 -1.38164,-1.1378 -1.54418,-1.05655 -1.46291,-0.97527 -1.54419,-0.89402 -1.62546,-0.97526 -1.62546,-0.81272 -1.62545,-0.81273 -1.70673,-0.73145 -1.70673,-0.65018 -1.70673,-0.65019 -1.78801,-0.56892 -1.788,-0.56891 -1.788,-0.48764 -1.78801,-0.40635 -1.86927,-0.40638 -1.86928,-0.32507 -1.788,-0.24384 -1.95055,-0.16254 -1.86927,-0.16254 -1.86928,-0.16257 -1.95054,0 -1.86929,0 -1.95055,0.0813 -1.86927,0.16254 -1.95055,0.16254 -1.86928,0.24381 -1.95054,0.32511 -1.86928,0.32507 -1.86927,0.40638 -1.86928,0.48764 -1.86927,0.48762 -1.86928,0.65019 -1.86928,0.65018 -1.78801,0.65018 -1.788,0.73146 -1.78799,0.89402 -1.70673,0.81272 -1.70673,0.97526 -1.70674,0.97529 -1.70673,0.97527 -1.62545,1.13782 -1.5442,1.05653 -1.62545,1.21911 -1.46291,1.21909 -1.54418,1.2191 -1.38165,1.30037 -1.46291,1.38164 -1.30037,1.38163 -1.38163,1.46291 -1.21909,1.46291 -1.2191,1.46291 -1.21909,1.5442 -1.13782,1.54418 -1.05655,1.62544 -1.05654,1.62548 -0.97528,1.62545 -0.97527,1.62544 -0.89401,1.70674 -0.81272,1.70675 -0.81273,1.70671 -0.73146,1.78802 -0.73146,1.78798 -0.5689,1.78801 -0.65018,1.78802 -0.48765,1.78799 -0.48763,1.78801 -0.40636,1.78801 -0.32509,1.86925 -0.32509,1.78801 -0.24383,1.86929 -0.24382,1.86925 -0.0813,1.78802 -0.0813,1.86928 -0.0813,1.78799 0,1.86928 0.0813,1.78801 0.0813,1.78801 0.16254,1.86926 0.16255,1.78801 0.24383,1.78802 0.32509,1.70671 0.24381,1.78802 0.40637,1.70671 0.32509,1.78801 0.40637,1.70672 0.48763,1.70674 0.40636,1.70672 0.48765,1.62547 0.5689,1.70672 0.56891,1.62547 0.56891,1.62545 0.56892,1.62547 0.5689,1.62545 0.65018,1.54418 0.73146,1.5442 0.65018,1.62544 0.73145,1.46292 0.81274,1.54417 0.81273,1.46294 0.81273,1.4629 0.89399,1.46291 0.81274,1.46291 0.97526,1.38164 0.89401,1.38163 0.97528,1.38164 0.894,1.38162 0.97528,1.30041 1.05654,1.30036 0.97528,1.30037 1.05654,1.30036 0.97528,1.30037 1.05655,1.21909 1.05654,1.30032 1.05655,1.2191 1.05654,1.21913 1.05655,1.13782 1.13782,1.2191 1.05655,1.21905 1.05655,1.13786 1.13782,1.13782 1.05654,1.21909 1.13783,1.13778 1.05655,1.05659 1.13781,1.13782 1.13782,1.13782 1.05655,1.05655 1.13782,1.13782 1.13781,1.05655 1.05655,1.13782 1.13783,1.05654 1.13782,1.05655 1.13781,1.05655 1.05656,1.05655 1.13781,0.97527 1.13782,1.05655 1.13783,1.05655 1.05655,0.97527 1.13781,1.05655 1.13782,0.97527 1.13782,0.97528 1.05655,1.05654 1.13782,0.97528 1.13782,0.97527 1.13782,0.97528 1.05655,0.97527 1.13782,0.97532 1.13782,0.97523 1.05654,0.894 1.13782,0.97528 1.13783,0.97527 1.05654,0.894 1.13782,0.97528 1.05655,0.894 1.13782,0.97527 1.13782,0.894 1.05655,0.894 1.13782,0.89401 1.05655,0.894 1.13782,0.97527 1.05654,0.894 1.13782,0.89401 1.05655,0.89395 1.05655,0.81278 1.13782,0.894 1.05654,0.894 1.13783,0.89405 1.05655,0.89395 1.05654,0.81273 1.05655,0.89396 1.13781,0.81277 1.05655,0.894 1.05656,0.81273 1.05654,0.894 1.05655,0.81278 1.13782,0.81268 1.05654,0.894 1.05655,0.81273 1.05654,0.81277 1.05656,0.81269 1.05655,0.81273 1.05654,0.89398 1.05655,0.81269 1.05654,0.81277 1.05655,0.81273 1.05654,0.73146 1.05655,0.81272 0.97528,0.81273 1.05656,0.81278 1.05653,0.81268 1.05656,0.73146 1.05653,0.81273 0.97529,0.81272 0.56891,0.40637 -0.16256,0.81273 -0.24381,1.21909 -0.16254,1.21914 -0.24384,1.21905 -0.24381,1.21909 -0.24381,1.21909 -0.16253,1.2191 -0.24384,1.21913 -0.24381,1.21905 -0.24384,1.21909 -0.2438,1.2191 -0.16254,1.13782 -0.24384,1.21909 -0.24381,1.21909 -0.24381,1.13782 -0.24383,1.2191 -0.24381,1.21909 -0.16254,1.13782 -0.24384,1.21909 -0.2438,1.13782 -0.24381,1.21914 -0.24383,1.13778 -0.16255,1.21909 0.56891,-0.65018 0.81273,-0.894 0.81272,-0.89401 0.65019,-0.73145 0.40637,-0.56891 0.24381,-1.2191 0.24383,-1.21909 0.24381,-1.21909 0.24381,-1.30037 0.24384,-1.21914 0.24381,-1.21904 0.24381,-1.30037 0.16256,-1.21909 0.24381,-1.30037 0.24381,-1.21909 0.24383,-1.30037 0.24381,-1.21909 0.24381,-1.30037 0.24384,-1.21909 0.24381,-1.30037 0.24384,-1.30036 0.2438,-1.21909 0.0813,-0.48764 1.30037,0.97527 1.2191,0.24382 1.54418,0.24382 1.54417,0.16255 1.13783,0.16254 0.73146,0.0813 -0.97527,-0.73145 -0.97528,-0.73146 -0.97527,-0.73145 -0.97529,-0.73146 -0.97526,-0.73145 -0.97529,-0.73141 -0.97526,-0.73146 -0.0813,-0.16259 0.24381,-1.30041 0.24383,-1.30037 0.24381,-1.21905 0.24381,-1.30036 0.24384,-1.30037 0.24381,-1.38164 0.16253,-1.30035 0.24384,-1.30037 0.24381,-1.30036 0.24381,-1.30037 0.24384,-1.30036 0.16253,-1.38164 0.24381,-1.30037 0.24384,-1.30036 0.24381,-1.38164 0.24381,-1.30037 0.16256,-1.38164 0.24381,-1.30041 0.24381,-1.38159 0.24384,-1.30037 0.16253,-1.38168 0.24381,-1.3816 0.24384,-1.30036 0.24381,-1.38168 0.16254,-1.3816 0.24383,-1.38164 0.24381,-1.38164 0.16254,-1.38163 0.24384,-1.38164 0.24381,-1.38164 0.16254,-1.38164 0.24383,-1.38164 0.16254,-1.38164 0.24381,-1.38164 0.16254,-1.38164 0.24383,-1.46291 0.16254,-1.38164 0.24381,-1.38164 0.16257,-1.46291 0.24381,-1.38164 0.16254,-1.46291 0.24384,-1.38164 0.16253,-1.46291 0.24381,-1.38164 0.16254,-1.46291 0.16257,-1.46295 0.24381,-1.38164 0.16254,-1.46287 0.16253,-1.46291 0.16257,-1.46291 0.24381,-1.46292 0.16254,-1.46295 0.16257,-1.46291 0.16253,-1.46292 0.16255,-1.46286 0.16253,-1.46291 0.16257,-1.54419 0.16254,-1.46295 0.16254,-1.46292 0.16254,-1.54414 0.16254,-1.46292 0.16256,-1.5442 0.0813,-1.46291 0.16254,-1.54418 0.16254,-1.54418 0.0813,-1.4629 0.16257,-1.54421 0.0813,-1.54417 0.16254,-1.54418 0.0813,-1.5442 0.0813,-1.54418 0.16257,-1.54418 0.0813,-1.54417 0.0813,-1.54421 0.0813,-1.54417 0.0813,-1.54418 0,-1.62547 0.0813,-1.54418 0.0813,-1.62545 0,-1.5442 0.0813,-1.62545 0,-1.54418 0,-1.62547 0,-1.54417 0,-1.62545 -0.0813,-1.62548 0,-1.62544 -0.0813,-1.62548 -0.0813,-1.62544 -0.0813,-1.62545" /><path
       style="fill:#4d75a2;fill-opacity:0.4642857;stroke:#000000;stroke-width:0.32509147999999999;stroke-linecap:round;stroke-linejoin:round;stroke-miterlimit:10;stroke-opacity:1;stroke-dasharray:none"
       d="m 278.22699,534.28077 -1.70447,-9.26736 -1.62546,-9.01903 0.23704,-1.2191 0.24834,-1.21909 0.24833,-1.21909 0.23705,-1.2191 0.24833,-1.21909 0.23705,-1.21909 0.24833,-1.2191 0.24833,-1.30939 0.23705,-1.21909 0.24833,-1.2191 0.23705,-1.21909 0.32735,-1.21909 0.24833,-1.29811 0.23705,-1.2191 0.24833,-1.21909 0.24834,-1.29811 0.31606,-1.21909 0.24833,-1.21909 0.24834,-1.29811 0.31606,-1.21909 0.24833,-1.29811 0.24833,-1.3094 0.23705,-1.21909 0.32735,-1.29811 0.24833,-1.21909 0.31606,-1.29811 0.24834,-1.29811 0.24833,-1.29811 0.31606,-1.21909 0.24834,-1.3094 0.32735,-1.29811 0.23704,-1.29809 0.32735,-1.29811 0.24833,-1.29811 0.32735,-1.30939 0.31606,-1.29811 0.24834,-1.29811 0.32735,-1.29811 0.23704,-1.29811 0.32735,-1.30939 0.32735,-1.29811 0.32735,-1.29811 0.23705,-1.37712 0.32735,-1.3094 0.32734,-1.29811 0.32735,-1.29811 0.32735,-1.37712 0.23705,-1.3094 0.32735,-1.37712 0.32735,-1.29811 0.32735,-1.38841 0.31606,-1.29811 0.32735,-1.37712 0.32734,-1.29811 0.32735,-1.38841 0.32735,-1.37712 0.31606,-1.29811 0.32735,-1.38841 0.40637,-1.37713 0.32735,-1.38841 0.32735,-1.29811 0.32734,-1.37712 0.40637,-1.38841 0.31606,-1.37713 0.32735,-1.37712 0.40636,-1.38841 0.32735,-1.37712 0.32735,-1.38842 0.40637,-1.37712 0.40636,-1.37712 0.32735,-1.46743 0.40636,-1.37712 0.31606,-1.38842 0.40637,-1.37712 0.40636,-1.46743 0.40637,-1.37712 0.32735,-1.38841 0.40636,-1.45614 0.40637,-1.38841 0.40636,-1.45614 0.40636,-1.38841 0.40637,-1.45614 0.40636,-1.38841 0.40637,-1.45614 0.48538,-1.46743 0.40636,-1.45614 -0.97076,-0.57568 -1.29811,-0.73371 -1.2981,-0.72243 -1.2191,-0.73371 -1.30939,-0.73372 -1.29811,-0.65469 -1.2191,-0.72243 -1.21909,-0.73371 -1.29811,-0.73372 -1.21909,-0.73371 -1.21909,-0.73371 -1.2191,-0.72243 -1.21909,-0.73371 -1.21909,-0.73371 -1.21909,-0.73372 -1.2191,-0.73371 -1.21909,-0.72243 -1.21909,-0.73371 -1.14008,-0.73371 -1.21909,-0.73372 -1.2191,-0.73371 -1.14008,-0.72243 -1.21909,-0.73371 -1.12879,-0.73371 -1.14008,-0.73372 -1.21909,-0.73371 -1.14008,-0.72243 -1.14007,-0.73371 -1.14008,-0.73371 -1.12879,-0.73372 -1.14008,-0.73371 -1.14008,-0.72242 -1.14008,-0.73372 -1.14007,-0.73371 -1.12879,-0.73371 -1.14008,-0.73372 -1.14008,-0.72242 -1.06106,-0.73372 -1.12879,-0.73371 -1.06106,-0.73371 -1.14008,-0.73372 -1.14008,-0.72242 -1.04977,-0.73372 -1.06107,-0.73371 -1.14007,-0.73371 -1.04978,-0.73372 -1.06106,-0.64341 -1.14008,-0.73371 -1.04977,-0.73371 -1.06107,-0.73372 -1.04977,-0.72242 -1.06106,-0.73372 -1.06106,-0.73371 -1.04978,-0.73371 -1.06106,-0.73372 -1.04978,-0.64341 -1.06106,-0.73371 -0.97076,-0.73371 -4.47001,-5.36175 -4.56031,-5.44075 8.70297,-0.90304 8.69168,-0.97079 26.66202,17.72202 0.73371,0.48538 0.81273,0.56439 0.81273,0.48538 0.72243,0.57569 0.81273,0.48537 0.81272,0.48538 0.81273,0.57569 0.81273,0.48538 0.73372,0.56439 0.81272,0.48538 0.81273,0.57568 0.81273,0.48538 0.81273,0.5644 0.81273,0.49667 0.81273,0.48538 0.81273,0.56439 0.81272,0.48538 0.81273,0.57568 0.81273,0.48538 0.81273,0.5644 0.89174,0.49667 0.81273,0.48537 0.81273,0.5644 0.81273,0.48538 0.90303,0.57568 0.81273,0.48538 0.81273,0.5644 0.89174,0.49666 0.81273,0.48538 0.81273,0.5644 0.89175,0.48538 0.81272,0.57568 0.89175,0.48538 0.89174,0.48538 0.81273,0.57568 0.90303,0.48538 0.81273,0.5644 0.89175,0.48538 0.89174,0.49667 0.89174,0.56439 0.81273,0.48538 0.89175,0.48538 0.90303,0.57568 0.40636,0.15803 0.48538,-1.45614 0.48538,-1.46742 0.5644,-1.46743 0.49666,-1.45614 0.48538,-1.54644 0.5644,-1.46743 0.48538,-1.45614 0.57568,-1.46742 0.5644,-1.45614 0.57568,-1.46743 0.56439,-1.46743 0.5644,-1.45613 0.57568,-1.54645 0.64341,-1.46742 0.57568,-1.45614 0.64341,-1.46743 0.6547,-1.45614 0.6547,-1.46742 0.64341,-1.46743 0.73371,-1.45614 0.73372,-1.46743 0.64341,-1.45614 0.81273,-1.46742 0.73371,-1.46743 0.81273,-1.45614 0.81273,-1.38839 0.81273,-1.45616 0.89174,-1.38839 0.81273,-1.37716 0.98205,-1.37709 0.89174,-1.38843 1.06106,-1.37712 0.97076,-1.29809 1.06106,-1.3094 1.04978,-1.29813 1.14008,-1.21909 1.21909,-1.21909 1.14008,-1.21909 1.29811,-1.14006 1.21909,-1.12879 1.29811,-1.1401 1.2981,-1.06106 1.38842,-1.14006 1.37712,-0.9708 1.38841,-1.06102 1.37713,-0.9708 1.46742,-0.97072 1.45616,-0.90303 1.54642,-0.89177 1.54643,-0.89176 1.54646,-0.81273 1.53515,-0.73369 1.62546,-0.7337 1.62546,-0.64343 1.71576,-0.65469 1.70445,-0.5644 1.70449,-0.48536 1.70449,-0.49667 1.79476,-0.31606 1.78349,-0.32737 1.78349,-0.32736 1.79475,-0.158 1.78353,-0.16933 1.79476,0 1.86252,0 1.79476,0.079 1.86252,0.1693 1.79475,0.23706 1.86253,0.2483 1.79475,0.32737 1.86252,0.40636 1.79476,0.48536 1.78349,0.56443 1.78349,0.57567 1.71576,0.64343 1.78349,0.73369 1.70449,0.81273 1.70445,0.81273 1.62546,0.89176 1.71576,0.98203 1.62546,0.97076 1.53515,1.06106 1.54646,1.1401 1.54643,1.21909 1.46742,1.2191 1.45616,1.29809 1.38839,1.29809 1.37713,1.37716 1.29812,1.46739 1.29809,1.46746 1.1401,1.53515 1.21909,1.54643 1.06103,1.62545 1.04979,1.62546 0.98203,1.70449 0.9708,1.71576 0.81272,1.70446 0.81273,1.78349 0.7337,1.87379 0.73369,1.78348 0.56443,1.8738 0.57567,1.8625 0.40636,1.95281 0.48537,1.87379 0.32736,1.9528 0.23707,1.94152 0.24829,1.95281 0.079,1.9528 0.079,1.95281 0,1.8625 -0.079,1.95281 -0.079,1.95281 -0.24829,1.9528 -0.23707,1.86251 -0.32736,1.9528 -0.32734,1.87379 -0.48539,1.86251 -0.48537,1.87379 -0.57566,1.78349 -0.64343,1.79477 -0.73373,1.78349 -0.73369,1.79478 -0.81273,1.70447 -0.89177,1.62546 -0.89172,1.70447 -0.98203,1.54644 -1.04979,1.62546 -1.06107,1.45614 -1.14006,1.46742 -1.21909,1.46743 -1.21909,1.37712 -1.29813,1.29811 -1.29812,1.29811 -1.3884,1.21909 -1.45615,1.14008 -1.3884,1.14008 -1.53515,1.06106 -1.46743,1.04978 -1.54642,0.98204 -1.54646,0.89175 -1.53516,0.81273 -1.62545,0.81273 -1.62546,0.81272 -1.62546,0.73372 -1.62546,0.64341 -1.71576,0.57568 -1.62545,0.64341 -1.70446,0.48538 -1.62546,0.49667 -1.70449,0.48538 -1.70449,0.40636 -1.62546,0.40637 -1.70445,0.32735 -1.71576,0.31606 -1.70446,0.24833 -1.70449,0.15803 -1.70449,0.16932 -1.70445,0.079 -1.62546,0.079 -1.71576,-0.079 -1.70445,0 -1.70449,-0.15803 -1.62546,-0.16931 -1.70449,-0.15804 -1.62546,-0.24833 -1.62546,-0.23704 -1.70445,-0.32735 -1.62546,-0.32735 -1.54646,-0.32735 -1.62546,-0.40637 -1.62545,-0.40636 -1.54643,-0.40636 -1.62546,-0.48538 -1.54642,-0.48538 -1.54646,-0.48538 -1.53515,-0.49667 -1.54645,-0.48538 -1.46742,-0.5644 -1.54645,-0.57568 -1.45613,-0.56439 -1.46743,-0.5644 -1.54644,-0.57568 -1.45614,-0.5644 -1.46743,-0.65469 -1.45614,-0.5644 -1.38841,-0.6547 -1.45614,-0.64341 -1.46742,-0.57568 -1.37713,-0.64341 -1.38841,-0.6547 -1.45614,-0.6547 -1.38841,-0.64341 -1.37712,-0.73371 -1.38842,-0.6547 -1.37712,-0.64341 -1.29811,-0.73371 -0.24833,0.24833 -0.23705,0.72243 -0.32735,0.98204 -0.24833,0.97076 -0.23705,1.06107 -0.32734,0.97076 -0.24834,0.98204 -0.23704,0.97076 -0.32735,1.06106 -0.24834,0.97076 -0.23704,0.97076 -0.32735,0.98205 -0.24834,0.97076 -0.23704,0.98205 -0.24834,1.04977 -0.24833,0.98205 -0.23704,0.97076 -0.32735,0.97076 -0.24834,0.98204 -0.23704,0.97076 -0.24834,0.98205 -0.23704,0.97076 -0.24834,0.97076 -0.24833,0.98205 -0.23705,0.97075 -0.24833,0.98205 -0.23705,0.97076 -0.24833,0.89175 -0.24833,0.98204 -0.23705,0.97076 -0.24833,0.97076 -0.15803,0.98205 -0.24834,0.97076 -0.23704,0.98204 -0.24834,0.89175 -0.24833,0.97076 -0.23705,0.98204 -0.16932,0.97076 -0.23704,0.89175 -0.24834,0.98205 -0.23704,0.97075 -0.24833,0.89175 -0.15804,0.98205 -0.24833,0.97076 -0.24833,0.89174 -0.15803,0.98205 -0.24834,0.97076 -0.23704,0.89174 -0.16932,0.98205 -0.23705,0.89174 -0.24833,0.97076 -0.15803,0.89174 -0.24834,0.98205 -0.23704,0.89174 -0.16932,0.97076 -0.23705,0.90304 -0.16931,0.97076 -0.23705,0.89174 -0.16932,0.89174 -0.23704,0.98205 -0.16932,0.89174 -0.23705,0.89175 -0.16932,0.98205 -0.23704,0.89174 -0.16932,0.89174 -0.23705,0.97076 -0.16932,0.90303 -0.23704,0.89175 -0.16932,0.89174 -0.23705,0.97076 -0.16931,0.90303 -0.23705,0.89175 -0.16932,0.89173 -8.861,41.20083 -5.76812,7.56289 -5.76811,7.56289 z m 87.93273,-122.89134 1.14009,0 1.14006,0 1.14006,-0.079 1.1401,-0.079 1.21909,-0.079 1.12879,-0.16932 1.1401,-0.23705 1.14006,-0.16931 1.14006,-0.32735 1.14009,-0.23705 1.04979,-0.32735 1.14006,-0.32735 1.14006,-0.40636 1.1401,-0.40637 1.04979,-0.40636 1.14006,-0.40636 1.06106,-0.48538 1.0498,-0.48538 1.06102,-0.57569 1.0498,-0.56439 1.06106,-0.6547 1.06106,-0.56439 0.97076,-0.73372 0.97076,-0.64341 0.98203,-0.73371 0.89176,-0.81273 0.89176,-0.81273 0.89173,-0.81273 0.90303,-0.89174 0.81273,-0.90303 0.81273,-0.89175 0.72242,-0.97076 0.73373,-0.98204 0.7337,-1.04978 0.6547,-1.06106 0.56439,-1.04978 0.5644,-1.06106 0.57566,-1.14008 0.4854,-1.14007 0.4854,-1.12879 0.40636,-1.2191 0.40637,-1.21909 0.40636,-1.21909 0.2483,-1.2191 0.32737,-1.21909 0.23706,-1.21909 0.1693,-1.21909 0.15803,-1.3094 0.079,-1.29811 0.079,-1.21909 0,-1.29811 0,-1.29811 -0.079,-1.21909 -0.079,-1.29811 -0.15803,-1.3094 -0.1693,-1.21909 -0.23706,-1.29811 -0.24834,-1.21909 -0.32733,-1.29811 -0.40636,-1.21909 -0.40637,-1.21909 -0.40636,-1.2191 -0.4854,-1.14008 -0.4854,-1.21909 -0.57566,-1.14008 -0.64343,-1.12879 -0.65466,-1.06106 -0.64343,-1.14008 -0.73373,-1.04977 -0.7337,-1.06106 -0.81273,-0.97076 -0.81272,-0.98205 -0.81273,-0.97076 -0.89177,-0.89172 -0.89172,-0.90304 -0.98203,-0.89176 -0.89176,-0.81273 -0.97076,-0.73369 -1.06106,-0.81273 -1.06107,-0.72243 -0.97076,-0.65473 -1.14006,-0.65466 -1.04979,-0.64343 -1.14009,-0.57567 -1.06103,-0.56443 -1.1401,-0.48536 -1.21909,-0.48536 -1.12879,-0.40636 -1.14009,-0.32737 -1.2191,-0.40637 -1.21909,-0.32736 -1.14006,-0.2483 -1.21909,-0.23706 -1.2191,-0.16931 -1.21909,-0.079 -1.21909,-0.15803 -1.2191,0 -1.14006,0 -1.21909,0 -1.21909,0.079 -1.21909,0.15806 -1.1401,0.16931 -1.21909,0.23706 -1.12879,0.2483 -1.1401,0.32736 -1.14006,0.32737 -1.14006,0.40637 -1.14009,0.40636 -1.0498,0.48536 -1.06102,0.48536 -1.1401,0.4854 -0.97076,0.5757 -1.06106,0.56436 -0.97076,0.56443 -1.06106,0.65466 -0.97076,0.56443 -0.89176,0.7337 -0.98203,0.6547 -0.89173,0.73373 -0.97078,0.64339 -0.89174,0.7337 -0.81273,0.81273 -0.90303,0.73373 -0.81273,0.81273 -0.81273,0.81272 -0.81273,0.81273 -0.72242,0.89175 -0.73372,0.81273 -0.73371,0.89174 -0.73371,0.89174 -0.64341,0.98205 -0.6547,0.89174 -0.6547,0.97076 -0.56439,0.98205 -0.5644,0.97076 -0.6547,0.98205 -0.48538,0.97076 -0.57568,0.97076 -0.56439,0.98204 -0.48538,1.04978 -0.48538,0.98204 -0.49667,0.97076 -0.48538,1.06107 -0.48538,0.97076 -0.48538,1.06106 -0.40636,0.97076 -0.48538,1.06106 -0.40637,0.97076 -0.49667,1.06106 -0.40636,0.97076 -0.40636,1.06106 -0.40637,1.04978 -0.40636,0.98204 -0.40637,1.04978 -0.40636,1.06106 -0.31606,0.97076 -0.40637,1.06106 -0.40636,0.97076 -0.32735,1.06107 -0.40636,1.06106 -0.32735,0.97076 -0.32735,1.06106 -0.40637,0.97076 -0.32735,1.06106 -0.31606,1.04978 -0.32735,0.98204 -0.40636,1.04978 -0.32735,0.98204 -0.32735,1.04978 -0.32735,0.98205 -0.31606,0.97076 0.15803,0.079 0.97076,0.57568 0.90303,0.48538 0.97076,0.48538 0.89175,0.40637 0.98204,0.48538 0.97076,0.48538 0.89175,0.49666 0.98204,0.48538 0.97076,0.48538 0.97076,0.40637 0.98205,0.48538 0.97076,0.48538 0.98205,0.40636 0.97075,0.49667 0.97076,0.48538 0.98205,0.40636 1.04978,0.40637 0.98204,0.48538 0.97076,0.40636 1.06106,0.40637 0.97076,0.40636 1.06107,0.40636 0.97076,0.40637 1.06106,0.40636 1.04977,0.40637 1.06107,0.40636 1.06106,0.32735 1.04979,0.40637 1.06103,0.32734 1.04979,0.31607 1.06106,0.32734 1.06106,0.32735 1.0498,0.32735 1.14006,0.23705 1.06106,0.32735 1.12879,0.24833 1.06106,0.23705 1.14006,0.24833 1.1401,0.15803 1.12879,0.16932 1.14009,0.15803 1.14006,0.16932 1.14006,0.079 1.1401,0.079 1.12879,0.079 z"
       id="path3643" /></g></svg>